*SIMULATION OVERVIEW FILE


*** SIMULATION ABORTED, ERROR CODE  30 ***
See Warning.OUT file for additional information.

**************************************************************************************************************


*** SIMULATION ABORTED, ERROR CODE  30 ***
See Warning.OUT file for additional information.

**************************************************************************************************************


*** SIMULATION ABORTED, ERROR CODE  29 ***
See Warning.OUT file for additional information.

**************************************************************************************************************


*** SIMULATION ABORTED, ERROR CODE  29 ***
See Warning.OUT file for additional information.

**************************************************************************************************************


*** SIMULATION ABORTED, ERROR CODE  29 ***
See Warning.OUT file for additional information.

**************************************************************************************************************


*** SIMULATION ABORTED, ERROR CODE  29 ***
See Warning.OUT file for additional information.

**************************************************************************************************************


*** SIMULATION ABORTED, ERROR CODE  29 ***
See Warning.OUT file for additional information.

**************************************************************************************************************


*** SIMULATION ABORTED, ERROR CODE  29 ***
See Warning.OUT file for additional information.

**************************************************************************************************************


*** SIMULATION ABORTED, ERROR CODE  29 ***
See Warning.OUT file for additional information.

**************************************************************************************************************


*** SIMULATION ABORTED, ERROR CODE  29 ***
See Warning.OUT file for additional information.

**************************************************************************************************************


*** SIMULATION ABORTED, ERROR CODE  29 ***
See Warning.OUT file for additional information.

**************************************************************************************************************


*** SIMULATION ABORTED, ERROR CODE  29 ***
See Warning.OUT file for additional information.

**************************************************************************************************************


*** SIMULATION ABORTED, ERROR CODE  29 ***
See Warning.OUT file for additional information.

**************************************************************************************************************


*** SIMULATION ABORTED, ERROR CODE  29 ***
See Warning.OUT file for additional information.

**************************************************************************************************************


*** SIMULATION ABORTED, ERROR CODE  29 ***
See Warning.OUT file for additional information.

**************************************************************************************************************


*** SIMULATION ABORTED, ERROR CODE  29 ***
See Warning.OUT file for additional information.

**************************************************************************************************************


*** SIMULATION ABORTED, ERROR CODE  29 ***
See Warning.OUT file for additional information.

**************************************************************************************************************


*** SIMULATION ABORTED, ERROR CODE  29 ***
See Warning.OUT file for additional information.

**************************************************************************************************************


*** SIMULATION ABORTED, ERROR CODE  29 ***
See Warning.OUT file for additional information.

**************************************************************************************************************


*** SIMULATION ABORTED, ERROR CODE  29 ***
See Warning.OUT file for additional information.

**************************************************************************************************************


*** SIMULATION ABORTED, ERROR CODE  29 ***
See Warning.OUT file for additional information.

**************************************************************************************************************


*** SIMULATION ABORTED, ERROR CODE  29 ***
See Warning.OUT file for additional information.

**************************************************************************************************************


*** SIMULATION ABORTED, ERROR CODE  29 ***
See Warning.OUT file for additional information.

**************************************************************************************************************


*** SIMULATION ABORTED, ERROR CODE  29 ***
See Warning.OUT file for additional information.

**************************************************************************************************************


*** SIMULATION ABORTED, ERROR CODE  29 ***
See Warning.OUT file for additional information.

**************************************************************************************************************


*** SIMULATION ABORTED, ERROR CODE  29 ***
See Warning.OUT file for additional information.

**************************************************************************************************************


*** SIMULATION ABORTED, ERROR CODE  29 ***
See Warning.OUT file for additional information.

**************************************************************************************************************


*** SIMULATION ABORTED, ERROR CODE  29 ***
See Warning.OUT file for additional information.

**************************************************************************************************************


*** SIMULATION ABORTED, ERROR CODE  29 ***
See Warning.OUT file for additional information.

**************************************************************************************************************


*** SIMULATION ABORTED, ERROR CODE  29 ***
See Warning.OUT file for additional information.

**************************************************************************************************************


*** SIMULATION ABORTED, ERROR CODE  29 ***
See Warning.OUT file for additional information.

**************************************************************************************************************


*** SIMULATION ABORTED, ERROR CODE  30 ***
See Warning.OUT file for additional information.

**************************************************************************************************************


*** SIMULATION ABORTED, ERROR CODE  30 ***
See Warning.OUT file for additional information.

**************************************************************************************************************


*** SIMULATION ABORTED, ERROR CODE  29 ***
See Warning.OUT file for additional information.

**************************************************************************************************************


*** SIMULATION ABORTED, ERROR CODE  29 ***
See Warning.OUT file for additional information.

**************************************************************************************************************


*** SIMULATION ABORTED, ERROR CODE  29 ***
See Warning.OUT file for additional information.

**************************************************************************************************************


*** SIMULATION ABORTED, ERROR CODE  29 ***
See Warning.OUT file for additional information.

**************************************************************************************************************


*** SIMULATION ABORTED, ERROR CODE  29 ***
See Warning.OUT file for additional information.

**************************************************************************************************************


*** SIMULATION ABORTED, ERROR CODE  29 ***
See Warning.OUT file for additional information.

**************************************************************************************************************


*** SIMULATION ABORTED, ERROR CODE  29 ***
See Warning.OUT file for additional information.

**************************************************************************************************************


*** SIMULATION ABORTED, ERROR CODE  29 ***
See Warning.OUT file for additional information.

**************************************************************************************************************


*** SIMULATION ABORTED, ERROR CODE  29 ***
See Warning.OUT file for additional information.

**************************************************************************************************************


*** SIMULATION ABORTED, ERROR CODE  29 ***
See Warning.OUT file for additional information.

**************************************************************************************************************


*** SIMULATION ABORTED, ERROR CODE  29 ***
See Warning.OUT file for additional information.

**************************************************************************************************************


*** SIMULATION ABORTED, ERROR CODE  29 ***
See Warning.OUT file for additional information.

**************************************************************************************************************


*** SIMULATION ABORTED, ERROR CODE  29 ***
See Warning.OUT file for additional information.

**************************************************************************************************************


*** SIMULATION ABORTED, ERROR CODE  29 ***
See Warning.OUT file for additional information.

**************************************************************************************************************


*** SIMULATION ABORTED, ERROR CODE  29 ***
See Warning.OUT file for additional information.

**************************************************************************************************************


*** SIMULATION ABORTED, ERROR CODE  29 ***
See Warning.OUT file for additional information.

**************************************************************************************************************


*** SIMULATION ABORTED, ERROR CODE  29 ***
See Warning.OUT file for additional information.

**************************************************************************************************************


*** SIMULATION ABORTED, ERROR CODE  29 ***
See Warning.OUT file for additional information.

**************************************************************************************************************


*** SIMULATION ABORTED, ERROR CODE  29 ***
See Warning.OUT file for additional information.

**************************************************************************************************************


*** SIMULATION ABORTED, ERROR CODE  29 ***
See Warning.OUT file for additional information.

**************************************************************************************************************


*** SIMULATION ABORTED, ERROR CODE  29 ***
See Warning.OUT file for additional information.

**************************************************************************************************************


*** SIMULATION ABORTED, ERROR CODE  29 ***
See Warning.OUT file for additional information.

**************************************************************************************************************


*** SIMULATION ABORTED, ERROR CODE  29 ***
See Warning.OUT file for additional information.

**************************************************************************************************************


*** SIMULATION ABORTED, ERROR CODE  29 ***
See Warning.OUT file for additional information.

**************************************************************************************************************


*** SIMULATION ABORTED, ERROR CODE  29 ***
See Warning.OUT file for additional information.

**************************************************************************************************************


*** SIMULATION ABORTED, ERROR CODE  29 ***
See Warning.OUT file for additional information.

**************************************************************************************************************


*** SIMULATION ABORTED, ERROR CODE  29 ***
See Warning.OUT file for additional information.

**************************************************************************************************************


*** SIMULATION ABORTED, ERROR CODE  29 ***
See Warning.OUT file for additional information.

**************************************************************************************************************


*** SIMULATION ABORTED, ERROR CODE  29 ***
See Warning.OUT file for additional information.

**************************************************************************************************************


*** SIMULATION ABORTED, ERROR CODE  30 ***
See Warning.OUT file for additional information.

**************************************************************************************************************


*** SIMULATION ABORTED, ERROR CODE  30 ***
See Warning.OUT file for additional information.

**************************************************************************************************************


*** SIMULATION ABORTED, ERROR CODE  29 ***
See Warning.OUT file for additional information.

**************************************************************************************************************


*** SIMULATION ABORTED, ERROR CODE  29 ***
See Warning.OUT file for additional information.

**************************************************************************************************************


*** SIMULATION ABORTED, ERROR CODE  29 ***
See Warning.OUT file for additional information.

**************************************************************************************************************


*** SIMULATION ABORTED, ERROR CODE  29 ***
See Warning.OUT file for additional information.

**************************************************************************************************************


*** SIMULATION ABORTED, ERROR CODE  29 ***
See Warning.OUT file for additional information.

**************************************************************************************************************


*** SIMULATION ABORTED, ERROR CODE  29 ***
See Warning.OUT file for additional information.

**************************************************************************************************************


*** SIMULATION ABORTED, ERROR CODE  29 ***
See Warning.OUT file for additional information.

**************************************************************************************************************


*** SIMULATION ABORTED, ERROR CODE  29 ***
See Warning.OUT file for additional information.

**************************************************************************************************************


*** SIMULATION ABORTED, ERROR CODE  29 ***
See Warning.OUT file for additional information.

**************************************************************************************************************


*** SIMULATION ABORTED, ERROR CODE  29 ***
See Warning.OUT file for additional information.

**************************************************************************************************************


*** SIMULATION ABORTED, ERROR CODE  29 ***
See Warning.OUT file for additional information.

**************************************************************************************************************


*** SIMULATION ABORTED, ERROR CODE  29 ***
See Warning.OUT file for additional information.

**************************************************************************************************************


*** SIMULATION ABORTED, ERROR CODE  29 ***
See Warning.OUT file for additional information.

**************************************************************************************************************


*** SIMULATION ABORTED, ERROR CODE  29 ***
See Warning.OUT file for additional information.

**************************************************************************************************************


*** SIMULATION ABORTED, ERROR CODE  29 ***
See Warning.OUT file for additional information.

**************************************************************************************************************


*** SIMULATION ABORTED, ERROR CODE  29 ***
See Warning.OUT file for additional information.

**************************************************************************************************************


*** SIMULATION ABORTED, ERROR CODE  29 ***
See Warning.OUT file for additional information.

**************************************************************************************************************


*** SIMULATION ABORTED, ERROR CODE  29 ***
See Warning.OUT file for additional information.

**************************************************************************************************************


*** SIMULATION ABORTED, ERROR CODE  29 ***
See Warning.OUT file for additional information.

**************************************************************************************************************


*** SIMULATION ABORTED, ERROR CODE  29 ***
See Warning.OUT file for additional information.

**************************************************************************************************************


*** SIMULATION ABORTED, ERROR CODE  29 ***
See Warning.OUT file for additional information.

**************************************************************************************************************


*** SIMULATION ABORTED, ERROR CODE  29 ***
See Warning.OUT file for additional information.

**************************************************************************************************************


*** SIMULATION ABORTED, ERROR CODE  29 ***
See Warning.OUT file for additional information.

**************************************************************************************************************


*** SIMULATION ABORTED, ERROR CODE  29 ***
See Warning.OUT file for additional information.

**************************************************************************************************************


*** SIMULATION ABORTED, ERROR CODE  29 ***
See Warning.OUT file for additional information.

**************************************************************************************************************


*** SIMULATION ABORTED, ERROR CODE  29 ***
See Warning.OUT file for additional information.

**************************************************************************************************************


*** SIMULATION ABORTED, ERROR CODE  29 ***
See Warning.OUT file for additional information.

**************************************************************************************************************


*** SIMULATION ABORTED, ERROR CODE  29 ***
See Warning.OUT file for additional information.

**************************************************************************************************************


*** SIMULATION ABORTED, ERROR CODE  29 ***
See Warning.OUT file for additional information.

**************************************************************************************************************


*** SIMULATION ABORTED, ERROR CODE  30 ***
See Warning.OUT file for additional information.

**************************************************************************************************************


*** SIMULATION ABORTED, ERROR CODE  30 ***
See Warning.OUT file for additional information.

**************************************************************************************************************


*** SIMULATION ABORTED, ERROR CODE  29 ***
See Warning.OUT file for additional information.

**************************************************************************************************************


*** SIMULATION ABORTED, ERROR CODE  29 ***
See Warning.OUT file for additional information.

**************************************************************************************************************


*** SIMULATION ABORTED, ERROR CODE  29 ***
See Warning.OUT file for additional information.

**************************************************************************************************************


*** SIMULATION ABORTED, ERROR CODE  29 ***
See Warning.OUT file for additional information.

**************************************************************************************************************


*** SIMULATION ABORTED, ERROR CODE  29 ***
See Warning.OUT file for additional information.

**************************************************************************************************************


*** SIMULATION ABORTED, ERROR CODE  29 ***
See Warning.OUT file for additional information.

**************************************************************************************************************


*** SIMULATION ABORTED, ERROR CODE  29 ***
See Warning.OUT file for additional information.

**************************************************************************************************************


*** SIMULATION ABORTED, ERROR CODE  29 ***
See Warning.OUT file for additional information.

**************************************************************************************************************


*** SIMULATION ABORTED, ERROR CODE  29 ***
See Warning.OUT file for additional information.

**************************************************************************************************************


*** SIMULATION ABORTED, ERROR CODE  29 ***
See Warning.OUT file for additional information.

**************************************************************************************************************


*** SIMULATION ABORTED, ERROR CODE  29 ***
See Warning.OUT file for additional information.

**************************************************************************************************************


*** SIMULATION ABORTED, ERROR CODE  29 ***
See Warning.OUT file for additional information.

**************************************************************************************************************


*** SIMULATION ABORTED, ERROR CODE  29 ***
See Warning.OUT file for additional information.

**************************************************************************************************************


*** SIMULATION ABORTED, ERROR CODE  29 ***
See Warning.OUT file for additional information.

**************************************************************************************************************


*** SIMULATION ABORTED, ERROR CODE  29 ***
See Warning.OUT file for additional information.

**************************************************************************************************************


*** SIMULATION ABORTED, ERROR CODE  29 ***
See Warning.OUT file for additional information.

**************************************************************************************************************


*** SIMULATION ABORTED, ERROR CODE  29 ***
See Warning.OUT file for additional information.

**************************************************************************************************************


*** SIMULATION ABORTED, ERROR CODE  29 ***
See Warning.OUT file for additional information.

**************************************************************************************************************


*** SIMULATION ABORTED, ERROR CODE  29 ***
See Warning.OUT file for additional information.

**************************************************************************************************************


*** SIMULATION ABORTED, ERROR CODE  29 ***
See Warning.OUT file for additional information.

**************************************************************************************************************


*** SIMULATION ABORTED, ERROR CODE  29 ***
See Warning.OUT file for additional information.

**************************************************************************************************************


*** SIMULATION ABORTED, ERROR CODE  29 ***
See Warning.OUT file for additional information.

**************************************************************************************************************


*** SIMULATION ABORTED, ERROR CODE  29 ***
See Warning.OUT file for additional information.

**************************************************************************************************************


*** SIMULATION ABORTED, ERROR CODE  29 ***
See Warning.OUT file for additional information.

**************************************************************************************************************


*** SIMULATION ABORTED, ERROR CODE  29 ***
See Warning.OUT file for additional information.

**************************************************************************************************************


*** SIMULATION ABORTED, ERROR CODE  29 ***
See Warning.OUT file for additional information.

**************************************************************************************************************


*** SIMULATION ABORTED, ERROR CODE  29 ***
See Warning.OUT file for additional information.

**************************************************************************************************************


*** SIMULATION ABORTED, ERROR CODE  29 ***
See Warning.OUT file for additional information.

**************************************************************************************************************


*** SIMULATION ABORTED, ERROR CODE  29 ***
See Warning.OUT file for additional information.

**************************************************************************************************************


*** SIMULATION ABORTED, ERROR CODE  30 ***
See Warning.OUT file for additional information.

**************************************************************************************************************


*** SIMULATION ABORTED, ERROR CODE  30 ***
See Warning.OUT file for additional information.

**************************************************************************************************************


*** SIMULATION ABORTED, ERROR CODE  29 ***
See Warning.OUT file for additional information.

**************************************************************************************************************


*** SIMULATION ABORTED, ERROR CODE  29 ***
See Warning.OUT file for additional information.

**************************************************************************************************************


*** SIMULATION ABORTED, ERROR CODE  29 ***
See Warning.OUT file for additional information.

**************************************************************************************************************


*** SIMULATION ABORTED, ERROR CODE  29 ***
See Warning.OUT file for additional information.

**************************************************************************************************************


*** SIMULATION ABORTED, ERROR CODE  29 ***
See Warning.OUT file for additional information.

**************************************************************************************************************


*** SIMULATION ABORTED, ERROR CODE  29 ***
See Warning.OUT file for additional information.

**************************************************************************************************************


*** SIMULATION ABORTED, ERROR CODE  29 ***
See Warning.OUT file for additional information.

**************************************************************************************************************


*** SIMULATION ABORTED, ERROR CODE  29 ***
See Warning.OUT file for additional information.

**************************************************************************************************************


*** SIMULATION ABORTED, ERROR CODE  29 ***
See Warning.OUT file for additional information.

**************************************************************************************************************


*** SIMULATION ABORTED, ERROR CODE  29 ***
See Warning.OUT file for additional information.

**************************************************************************************************************


*** SIMULATION ABORTED, ERROR CODE  29 ***
See Warning.OUT file for additional information.

**************************************************************************************************************


*** SIMULATION ABORTED, ERROR CODE  29 ***
See Warning.OUT file for additional information.

**************************************************************************************************************


*** SIMULATION ABORTED, ERROR CODE  29 ***
See Warning.OUT file for additional information.

**************************************************************************************************************


*** SIMULATION ABORTED, ERROR CODE  29 ***
See Warning.OUT file for additional information.

**************************************************************************************************************


*** SIMULATION ABORTED, ERROR CODE  29 ***
See Warning.OUT file for additional information.

**************************************************************************************************************


*** SIMULATION ABORTED, ERROR CODE  29 ***
See Warning.OUT file for additional information.

**************************************************************************************************************


*** SIMULATION ABORTED, ERROR CODE  29 ***
See Warning.OUT file for additional information.

**************************************************************************************************************


*** SIMULATION ABORTED, ERROR CODE  29 ***
See Warning.OUT file for additional information.

**************************************************************************************************************


*** SIMULATION ABORTED, ERROR CODE  29 ***
See Warning.OUT file for additional information.

**************************************************************************************************************


*** SIMULATION ABORTED, ERROR CODE  29 ***
See Warning.OUT file for additional information.

**************************************************************************************************************


*** SIMULATION ABORTED, ERROR CODE  29 ***
See Warning.OUT file for additional information.

**************************************************************************************************************


*** SIMULATION ABORTED, ERROR CODE  29 ***
See Warning.OUT file for additional information.

**************************************************************************************************************


*** SIMULATION ABORTED, ERROR CODE  29 ***
See Warning.OUT file for additional information.

**************************************************************************************************************


*** SIMULATION ABORTED, ERROR CODE  29 ***
See Warning.OUT file for additional information.

**************************************************************************************************************
