,TEMP-Jun-W1,TEMP-Jun-W2,TEMP-Jun-W3,TEMP-Jun-W4,TEMP-Jul-W1,TEMP-Jul-W2,TEMP-Jul-W3,TEMP-Jul-W4,TEMP-Aug-W1,TEMP-Aug-W2,TEMP-Aug-W3,TEMP-Aug-W4,TEMP-Sep-W1,TEMP-Sep-W2,TEMP-Sep-W3,TEMP-Sep-W4
WTH1,52.94428571428572,61.90571428571428,69.8257142857143,75.0842857142857,69.5942857142857,70.68714285714285,74.24857142857141,71.98571428571427,71.26571428571427,72.94999999999999,71.11142857142856,72.67999999999998,72.92428571428569,69.19571428571426,66.75285714285711,70.17285714285713
WTH2,53.690000000000005,64.63142857142859,64.3742857142857,65.53142857142856,68.99000000000002,71.34285714285716,68.14142857142859,67.84571428571432,69.29857142857146,63.70571428571431,73.73428571428575,71.26571428571432,74.50571428571433,62.8571428571429,60.49142857142859,55.67000000000003
WTH3,53.30428571428571,67.29285714285716,65.87857142857143,67.24142857142859,64.63142857142859,68.1542857142857,72.3842857142857,75.3542857142857,74.38999999999999,78.45285714285714,68.71999999999998,68.83571428571426,71.05999999999993,65.31285714285707,66.95857142857137,60.72285714285708
WTH4,58.48571428571428,63.70571428571428,64.74714285714286,69.31142857142856,67.38285714285713,64.12999999999998,72.92428571428567,70.28857142857137,70.26285714285709,67.65285714285707,67.04857142857135,62.80571428571424,66.03285714285711,63.49999999999995,63.847142857142806,65.77571428571423
WTH5,53.690000000000005,64.63142857142859,64.3742857142857,65.53142857142856,68.99000000000002,71.34285714285716,68.14142857142859,67.84571428571432,69.29857142857146,63.70571428571431,73.73428571428575,71.26571428571432,74.50571428571433,62.8571428571429,60.49142857142859,55.67000000000003
WTH6,64.20714285714287,60.285714285714285,69.85142857142857,66.41857142857143,68.16714285714285,70.00571428571426,75.84285714285713,72.13999999999999,79.93142857142857,72.57714285714282,69.41428571428568,70.67428571428569,70.59714285714283,65.92999999999996,63.731428571428545,61.99571428571425
WTH7,66.17428571428572,70.59714285714286,60.915714285714266,72.7057142857143,71.26571428571431,68.20571428571432,74.00428571428574,76.12571428571428,76.21571428571431,68.19285714285719,69.04142857142863,68.16714285714292,69.4785714285715,72.2428571428572,64.58000000000004,59.912857142857185
WTH8,66.17428571428572,70.59714285714286,60.915714285714266,72.7057142857143,71.26571428571431,68.20571428571432,74.00428571428574,76.12571428571428,76.21571428571431,68.19285714285719,69.04142857142863,68.16714285714292,69.4785714285715,72.2428571428572,64.58000000000004,59.912857142857185
WTH9,53.690000000000005,64.63142857142859,64.3742857142857,65.53142857142856,68.99000000000002,71.34285714285716,68.14142857142859,67.84571428571432,69.29857142857146,63.70571428571431,73.73428571428575,71.26571428571432,74.50571428571433,62.8571428571429,60.49142857142859,55.67000000000003
WTH10,66.17428571428572,70.59714285714286,60.915714285714266,72.7057142857143,71.26571428571431,68.20571428571432,74.00428571428574,76.12571428571428,76.21571428571431,68.19285714285719,69.04142857142863,68.16714285714292,69.4785714285715,72.2428571428572,64.58000000000004,59.912857142857185
WTH11,66.17428571428572,70.59714285714286,60.915714285714266,72.7057142857143,71.26571428571431,68.20571428571432,74.00428571428574,76.12571428571428,76.21571428571431,68.19285714285719,69.04142857142863,68.16714285714292,69.4785714285715,72.2428571428572,64.58000000000004,59.912857142857185
WTH12,64.88857142857144,67.71714285714289,60.02857142857145,66.22571428571432,64.33571428571432,69.98000000000005,71.03428571428576,69.02857142857148,73.27142857142864,70.49428571428578,66.03285714285721,72.25571428571435,68.3985714285715,68.56571428571438,63.46142857142867,60.91571428571437
WTH13,63.91142857142857,62.162857142857135,67.21571428571427,68.96428571428571,66.54714285714284,66.91999999999997,64.18142857142858,68.23142857142857,65.48,69.68428571428572,65.36428571428571,72.42285714285717,70.87999999999998,71.25285714285714,60.85142857142858,57.161428571428566
WTH14,59.24428571428571,62.239999999999995,74.54428571428572,64.85,67.21571428571431,68.95142857142862,69.10571428571433,69.73571428571431,67.92285714285718,63.011428571428596,63.654285714285734,67.75571428571432,67.80714285714286,59.42428571428572,66.65000000000002,67.91000000000001
WTH15,59.051428571428566,65.19714285714285,65.71142857142856,65.57,62.89571428571427,65.72428571428568,69.54285714285713,70.50714285714285,73.87571428571427,69.79999999999998,72.01142857142858,70.28857142857144,64.67000000000004,74.2228571428572,65.37714285714287,67.38285714285719
WTH16,59.051428571428566,65.19714285714285,65.71142857142856,65.57,62.89571428571427,65.72428571428568,69.54285714285713,70.50714285714285,73.87571428571427,69.79999999999998,72.01142857142858,70.28857142857144,64.67000000000004,74.2228571428572,65.37714285714287,67.38285714285719
WTH17,59.051428571428566,65.19714285714285,65.71142857142856,65.57,62.89571428571427,65.72428571428568,69.54285714285713,70.50714285714285,73.87571428571427,69.79999999999998,72.01142857142858,70.28857142857144,64.67000000000004,74.2228571428572,65.37714285714287,67.38285714285719
WTH18,59.24428571428571,62.239999999999995,74.54428571428572,64.85,67.21571428571431,68.95142857142862,69.10571428571433,69.73571428571431,67.92285714285718,63.011428571428596,63.654285714285734,67.75571428571432,67.80714285714286,59.42428571428572,66.65000000000002,67.91000000000001
WTH19,59.051428571428566,65.19714285714285,65.71142857142856,65.57,62.89571428571427,65.72428571428568,69.54285714285713,70.50714285714285,73.87571428571427,69.79999999999998,72.01142857142858,70.28857142857144,64.67000000000004,74.2228571428572,65.37714285714287,67.38285714285719
WTH20,57.457142857142856,67.67857142857142,64.6185714285714,66.17428571428567,68.15428571428568,67.92285714285717,67.69142857142859,65.46714285714287,71.44571428571429,69.64571428571428,70.05714285714286,64.83714285714284,71.34285714285714,69.63285714285716,69.83857142857148,60.08000000000004
WTH21,59.24428571428571,62.239999999999995,74.54428571428572,64.85,67.21571428571431,68.95142857142862,69.10571428571433,69.73571428571431,67.92285714285718,63.011428571428596,63.654285714285734,67.75571428571432,67.80714285714286,59.42428571428572,66.65000000000002,67.91000000000001
WTH22,57.457142857142856,67.67857142857142,64.6185714285714,66.17428571428567,68.15428571428568,67.92285714285717,67.69142857142859,65.46714285714287,71.44571428571429,69.64571428571428,70.05714285714286,64.83714285714284,71.34285714285714,69.63285714285716,69.83857142857148,60.08000000000004
WTH23,63.91142857142857,62.162857142857135,67.21571428571427,68.96428571428571,66.54714285714284,66.91999999999997,64.18142857142858,68.23142857142857,65.48,69.68428571428572,65.36428571428571,72.42285714285717,70.87999999999998,71.25285714285714,60.85142857142858,57.161428571428566
WTH24,63.91142857142857,62.162857142857135,67.21571428571427,68.96428571428571,66.54714285714284,66.91999999999997,64.18142857142858,68.23142857142857,65.48,69.68428571428572,65.36428571428571,72.42285714285717,70.87999999999998,71.25285714285714,60.85142857142858,57.161428571428566
WTH25,57.457142857142856,67.67857142857142,64.6185714285714,66.17428571428567,68.15428571428568,67.92285714285717,67.69142857142859,65.46714285714287,71.44571428571429,69.64571428571428,70.05714285714286,64.83714285714284,71.34285714285714,69.63285714285716,69.83857142857148,60.08000000000004
WTH26,63.91142857142857,62.162857142857135,67.21571428571427,68.96428571428571,66.54714285714284,66.91999999999997,64.18142857142858,68.23142857142857,65.48,69.68428571428572,65.36428571428571,72.42285714285717,70.87999999999998,71.25285714285714,60.85142857142858,57.161428571428566
WTH27,56.942857142857136,65.10714285714286,65.13285714285715,63.68,70.21142857142857,67.80714285714286,68.09000000000002,67.57571428571428,68.64285714285715,65.6857142857143,68.07714285714287,69.90285714285714,72.19142857142859,72.25571428571429,69.71000000000001,56.95571428571429
WTH28,57.894285714285715,63.332857142857144,66.67571428571428,63.10142857142856,64.69571428571429,63.35857142857144,69.92857142857143,65.04285714285717,64.64428571428573,74.0557142857143,69.46571428571428,72.79571428571425,69.79999999999998,72.74428571428574,66.29000000000003,58.64000000000002
WTH29,59.24428571428571,62.239999999999995,74.54428571428572,64.85,67.21571428571431,68.95142857142862,69.10571428571433,69.73571428571431,67.92285714285718,63.011428571428596,63.654285714285734,67.75571428571432,67.80714285714286,59.42428571428572,66.65000000000002,67.91000000000001
WTH30,56.942857142857136,65.10714285714286,65.13285714285715,63.68,70.21142857142857,67.80714285714286,68.09000000000002,67.57571428571428,68.64285714285715,65.6857142857143,68.07714285714287,69.90285714285714,72.19142857142859,72.25571428571429,69.71000000000001,56.95571428571429
WTH31,59.051428571428566,65.19714285714285,65.71142857142856,65.57,62.89571428571427,65.72428571428568,69.54285714285713,70.50714285714285,73.87571428571427,69.79999999999998,72.01142857142858,70.28857142857144,64.67000000000004,74.2228571428572,65.37714285714287,67.38285714285719
WTH32,63.91142857142857,62.162857142857135,67.21571428571427,68.96428571428571,66.54714285714284,66.91999999999997,64.18142857142858,68.23142857142857,65.48,69.68428571428572,65.36428571428571,72.42285714285717,70.87999999999998,71.25285714285714,60.85142857142858,57.161428571428566
WTH33,56.942857142857136,65.10714285714286,65.13285714285715,63.68,70.21142857142857,67.80714285714286,68.09000000000002,67.57571428571428,68.64285714285715,65.6857142857143,68.07714285714287,69.90285714285714,72.19142857142859,72.25571428571429,69.71000000000001,56.95571428571429
WTH34,65.69857142857144,61.61000000000001,67.8457142857143,64.42571428571426,69.23428571428568,71.66428571428564,74.05571428571423,77.08999999999993,75.90714285714277,72.65428571428563,68.1157142857142,68.79714285714279,67.6914285714285,68.96428571428564,65.42857142857137,56.35142857142853
WTH35,59.24428571428571,62.239999999999995,74.54428571428572,64.85,67.21571428571431,68.95142857142862,69.10571428571433,69.73571428571431,67.92285714285718,63.011428571428596,63.654285714285734,67.75571428571432,67.80714285714286,59.42428571428572,66.65000000000002,67.91000000000001
WTH36,63.410000000000004,65.36428571428571,68.39857142857143,70.14714285714285,66.53428571428572,74.63428571428571,74.31285714285711,73.72142857142853,72.16571428571424,74.27428571428571,75.93285714285712,71.79285714285713,70.84142857142858,67.33142857142857,61.35285714285715,59.180000000000014
WTH37,63.91142857142857,62.162857142857135,67.21571428571427,68.96428571428571,66.54714285714284,66.91999999999997,64.18142857142858,68.23142857142857,65.48,69.68428571428572,65.36428571428571,72.42285714285717,70.87999999999998,71.25285714285714,60.85142857142858,57.161428571428566
WTH38,57.457142857142856,67.67857142857142,64.6185714285714,66.17428571428567,68.15428571428568,67.92285714285717,67.69142857142859,65.46714285714287,71.44571428571429,69.64571428571428,70.05714285714286,64.83714285714284,71.34285714285714,69.63285714285716,69.83857142857148,60.08000000000004
WTH39,65.69857142857144,61.61000000000001,67.8457142857143,64.42571428571426,69.23428571428568,71.66428571428564,74.05571428571423,77.08999999999993,75.90714285714277,72.65428571428563,68.1157142857142,68.79714285714279,67.6914285714285,68.96428571428564,65.42857142857137,56.35142857142853
WTH40,60.902857142857144,65.72428571428571,63.42285714285713,58.89714285714285,67.89714285714288,67.73000000000003,68.55285714285718,68.11571428571433,69.58142857142863,67.52428571428577,61.54571428571434,65.33857142857148,69.4528571428572,71.15000000000006,66.97142857142862,65.98142857142861
WTH41,63.91142857142857,62.162857142857135,67.21571428571427,68.96428571428571,66.54714285714284,66.91999999999997,64.18142857142858,68.23142857142857,65.48,69.68428571428572,65.36428571428571,72.42285714285717,70.87999999999998,71.25285714285714,60.85142857142858,57.161428571428566
WTH42,57.894285714285715,63.332857142857144,66.67571428571428,63.10142857142856,64.69571428571429,63.35857142857144,69.92857142857143,65.04285714285717,64.64428571428573,74.0557142857143,69.46571428571428,72.79571428571425,69.79999999999998,72.74428571428574,66.29000000000003,58.64000000000002
WTH43,59.051428571428566,65.19714285714285,65.71142857142856,65.57,62.89571428571427,65.72428571428568,69.54285714285713,70.50714285714285,73.87571428571427,69.79999999999998,72.01142857142858,70.28857142857144,64.67000000000004,74.2228571428572,65.37714285714287,67.38285714285719
WTH44,59.051428571428566,65.19714285714285,65.71142857142856,65.57,62.89571428571427,65.72428571428568,69.54285714285713,70.50714285714285,73.87571428571427,69.79999999999998,72.01142857142858,70.28857142857144,64.67000000000004,74.2228571428572,65.37714285714287,67.38285714285719
WTH45,63.91142857142857,62.162857142857135,67.21571428571427,68.96428571428571,66.54714285714284,66.91999999999997,64.18142857142858,68.23142857142857,65.48,69.68428571428572,65.36428571428571,72.42285714285717,70.87999999999998,71.25285714285714,60.85142857142858,57.161428571428566
WTH46,63.410000000000004,65.36428571428571,68.39857142857143,70.14714285714285,66.53428571428572,74.63428571428571,74.31285714285711,73.72142857142853,72.16571428571424,74.27428571428571,75.93285714285712,71.79285714285713,70.84142857142858,67.33142857142857,61.35285714285715,59.180000000000014
WTH47,56.942857142857136,65.10714285714286,65.13285714285715,63.68,70.21142857142857,67.80714285714286,68.09000000000002,67.57571428571428,68.64285714285715,65.6857142857143,68.07714285714287,69.90285714285714,72.19142857142859,72.25571428571429,69.71000000000001,56.95571428571429
WTH48,60.902857142857144,65.72428571428571,63.42285714285713,58.89714285714285,67.89714285714288,67.73000000000003,68.55285714285718,68.11571428571433,69.58142857142863,67.52428571428577,61.54571428571434,65.33857142857148,69.4528571428572,71.15000000000006,66.97142857142862,65.98142857142861
WTH49,60.902857142857144,65.72428571428571,63.42285714285713,58.89714285714285,67.89714285714288,67.73000000000003,68.55285714285718,68.11571428571433,69.58142857142863,67.52428571428577,61.54571428571434,65.33857142857148,69.4528571428572,71.15000000000006,66.97142857142862,65.98142857142861
WTH50,60.902857142857144,65.72428571428571,63.42285714285713,58.89714285714285,67.89714285714288,67.73000000000003,68.55285714285718,68.11571428571433,69.58142857142863,67.52428571428577,61.54571428571434,65.33857142857148,69.4528571428572,71.15000000000006,66.97142857142862,65.98142857142861
WTH51,63.410000000000004,65.36428571428571,68.39857142857143,70.14714285714285,66.53428571428572,74.63428571428571,74.31285714285711,73.72142857142853,72.16571428571424,74.27428571428571,75.93285714285712,71.79285714285713,70.84142857142858,67.33142857142857,61.35285714285715,59.180000000000014
WTH52,63.91142857142857,62.162857142857135,67.21571428571427,68.96428571428571,66.54714285714284,66.91999999999997,64.18142857142858,68.23142857142857,65.48,69.68428571428572,65.36428571428571,72.42285714285717,70.87999999999998,71.25285714285714,60.85142857142858,57.161428571428566
WTH53,60.902857142857144,65.72428571428571,63.42285714285713,58.89714285714285,67.89714285714288,67.73000000000003,68.55285714285718,68.11571428571433,69.58142857142863,67.52428571428577,61.54571428571434,65.33857142857148,69.4528571428572,71.15000000000006,66.97142857142862,65.98142857142861
WTH54,63.410000000000004,65.36428571428571,68.39857142857143,70.14714285714285,66.53428571428572,74.63428571428571,74.31285714285711,73.72142857142853,72.16571428571424,74.27428571428571,75.93285714285712,71.79285714285713,70.84142857142858,67.33142857142857,61.35285714285715,59.180000000000014
WTH55,57.457142857142856,67.67857142857142,64.6185714285714,66.17428571428567,68.15428571428568,67.92285714285717,67.69142857142859,65.46714285714287,71.44571428571429,69.64571428571428,70.05714285714286,64.83714285714284,71.34285714285714,69.63285714285716,69.83857142857148,60.08000000000004
WTH56,63.91142857142857,62.162857142857135,67.21571428571427,68.96428571428571,66.54714285714284,66.91999999999997,64.18142857142858,68.23142857142857,65.48,69.68428571428572,65.36428571428571,72.42285714285717,70.87999999999998,71.25285714285714,60.85142857142858,57.161428571428566
WTH57,63.91142857142857,62.162857142857135,67.21571428571427,68.96428571428571,66.54714285714284,66.91999999999997,64.18142857142858,68.23142857142857,65.48,69.68428571428572,65.36428571428571,72.42285714285717,70.87999999999998,71.25285714285714,60.85142857142858,57.161428571428566
WTH58,63.410000000000004,65.36428571428571,68.39857142857143,70.14714285714285,66.53428571428572,74.63428571428571,74.31285714285711,73.72142857142853,72.16571428571424,74.27428571428571,75.93285714285712,71.79285714285713,70.84142857142858,67.33142857142857,61.35285714285715,59.180000000000014
WTH59,63.410000000000004,65.36428571428571,68.39857142857143,70.14714285714285,66.53428571428572,74.63428571428571,74.31285714285711,73.72142857142853,72.16571428571424,74.27428571428571,75.93285714285712,71.79285714285713,70.84142857142858,67.33142857142857,61.35285714285715,59.180000000000014
WTH60,59.24428571428571,62.239999999999995,74.54428571428572,64.85,67.21571428571431,68.95142857142862,69.10571428571433,69.73571428571431,67.92285714285718,63.011428571428596,63.654285714285734,67.75571428571432,67.80714285714286,59.42428571428572,66.65000000000002,67.91000000000001
WTH61,63.91142857142857,62.162857142857135,67.21571428571427,68.96428571428571,66.54714285714284,66.91999999999997,64.18142857142858,68.23142857142857,65.48,69.68428571428572,65.36428571428571,72.42285714285717,70.87999999999998,71.25285714285714,60.85142857142858,57.161428571428566
WTH62,57.894285714285715,63.332857142857144,66.67571428571428,63.10142857142856,64.69571428571429,63.35857142857144,69.92857142857143,65.04285714285717,64.64428571428573,74.0557142857143,69.46571428571428,72.79571428571425,69.79999999999998,72.74428571428574,66.29000000000003,58.64000000000002
WTH63,63.410000000000004,65.36428571428571,68.39857142857143,70.14714285714285,66.53428571428572,74.63428571428571,74.31285714285711,73.72142857142853,72.16571428571424,74.27428571428571,75.93285714285712,71.79285714285713,70.84142857142858,67.33142857142857,61.35285714285715,59.180000000000014
WTH64,63.91142857142857,62.162857142857135,67.21571428571427,68.96428571428571,66.54714285714284,66.91999999999997,64.18142857142858,68.23142857142857,65.48,69.68428571428572,65.36428571428571,72.42285714285717,70.87999999999998,71.25285714285714,60.85142857142858,57.161428571428566
WTH65,56.942857142857136,65.10714285714286,65.13285714285715,63.68,70.21142857142857,67.80714285714286,68.09000000000002,67.57571428571428,68.64285714285715,65.6857142857143,68.07714285714287,69.90285714285714,72.19142857142859,72.25571428571429,69.71000000000001,56.95571428571429
WTH66,59.24428571428571,62.239999999999995,74.54428571428572,64.85,67.21571428571431,68.95142857142862,69.10571428571433,69.73571428571431,67.92285714285718,63.011428571428596,63.654285714285734,67.75571428571432,67.80714285714286,59.42428571428572,66.65000000000002,67.91000000000001
WTH67,65.69857142857144,61.61000000000001,67.8457142857143,64.42571428571426,69.23428571428568,71.66428571428564,74.05571428571423,77.08999999999993,75.90714285714277,72.65428571428563,68.1157142857142,68.79714285714279,67.6914285714285,68.96428571428564,65.42857142857137,56.35142857142853
WTH68,56.942857142857136,65.10714285714286,65.13285714285715,63.68,70.21142857142857,67.80714285714286,68.09000000000002,67.57571428571428,68.64285714285715,65.6857142857143,68.07714285714287,69.90285714285714,72.19142857142859,72.25571428571429,69.71000000000001,56.95571428571429
WTH69,57.457142857142856,67.67857142857142,64.6185714285714,66.17428571428567,68.15428571428568,67.92285714285717,67.69142857142859,65.46714285714287,71.44571428571429,69.64571428571428,70.05714285714286,64.83714285714284,71.34285714285714,69.63285714285716,69.83857142857148,60.08000000000004
WTH70,65.69857142857144,61.61000000000001,67.8457142857143,64.42571428571426,69.23428571428568,71.66428571428564,74.05571428571423,77.08999999999993,75.90714285714277,72.65428571428563,68.1157142857142,68.79714285714279,67.6914285714285,68.96428571428564,65.42857142857137,56.35142857142853
WTH71,59.051428571428566,65.19714285714285,65.71142857142856,65.57,62.89571428571427,65.72428571428568,69.54285714285713,70.50714285714285,73.87571428571427,69.79999999999998,72.01142857142858,70.28857142857144,64.67000000000004,74.2228571428572,65.37714285714287,67.38285714285719
WTH72,65.69857142857144,61.61000000000001,67.8457142857143,64.42571428571426,69.23428571428568,71.66428571428564,74.05571428571423,77.08999999999993,75.90714285714277,72.65428571428563,68.1157142857142,68.79714285714279,67.6914285714285,68.96428571428564,65.42857142857137,56.35142857142853
WTH73,56.942857142857136,65.10714285714286,65.13285714285715,63.68,70.21142857142857,67.80714285714286,68.09000000000002,67.57571428571428,68.64285714285715,65.6857142857143,68.07714285714287,69.90285714285714,72.19142857142859,72.25571428571429,69.71000000000001,56.95571428571429
WTH74,63.91142857142857,62.162857142857135,67.21571428571427,68.96428571428571,66.54714285714284,66.91999999999997,64.18142857142858,68.23142857142857,65.48,69.68428571428572,65.36428571428571,72.42285714285717,70.87999999999998,71.25285714285714,60.85142857142858,57.161428571428566
WTH75,63.91142857142857,62.162857142857135,67.21571428571427,68.96428571428571,66.54714285714284,66.91999999999997,64.18142857142858,68.23142857142857,65.48,69.68428571428572,65.36428571428571,72.42285714285717,70.87999999999998,71.25285714285714,60.85142857142858,57.161428571428566
WTH76,59.24428571428571,62.239999999999995,74.54428571428572,64.85,67.21571428571431,68.95142857142862,69.10571428571433,69.73571428571431,67.92285714285718,63.011428571428596,63.654285714285734,67.75571428571432,67.80714285714286,59.42428571428572,66.65000000000002,67.91000000000001
WTH77,63.91142857142857,62.162857142857135,67.21571428571427,68.96428571428571,66.54714285714284,66.91999999999997,64.18142857142858,68.23142857142857,65.48,69.68428571428572,65.36428571428571,72.42285714285717,70.87999999999998,71.25285714285714,60.85142857142858,57.161428571428566
WTH78,57.457142857142856,67.67857142857142,64.6185714285714,66.17428571428567,68.15428571428568,67.92285714285717,67.69142857142859,65.46714285714287,71.44571428571429,69.64571428571428,70.05714285714286,64.83714285714284,71.34285714285714,69.63285714285716,69.83857142857148,60.08000000000004
WTH79,63.91142857142857,62.162857142857135,67.21571428571427,68.96428571428571,66.54714285714284,66.91999999999997,64.18142857142858,68.23142857142857,65.48,69.68428571428572,65.36428571428571,72.42285714285717,70.87999999999998,71.25285714285714,60.85142857142858,57.161428571428566
WTH80,56.942857142857136,65.10714285714286,65.13285714285715,63.68,70.21142857142857,67.80714285714286,68.09000000000002,67.57571428571428,68.64285714285715,65.6857142857143,68.07714285714287,69.90285714285714,72.19142857142859,72.25571428571429,69.71000000000001,56.95571428571429
WTH81,59.051428571428566,65.19714285714285,65.71142857142856,65.57,62.89571428571427,65.72428571428568,69.54285714285713,70.50714285714285,73.87571428571427,69.79999999999998,72.01142857142858,70.28857142857144,64.67000000000004,74.2228571428572,65.37714285714287,67.38285714285719
WTH82,65.69857142857144,61.61000000000001,67.8457142857143,64.42571428571426,69.23428571428568,71.66428571428564,74.05571428571423,77.08999999999993,75.90714285714277,72.65428571428563,68.1157142857142,68.79714285714279,67.6914285714285,68.96428571428564,65.42857142857137,56.35142857142853
WTH83,60.902857142857144,65.72428571428571,63.42285714285713,58.89714285714285,67.89714285714288,67.73000000000003,68.55285714285718,68.11571428571433,69.58142857142863,67.52428571428577,61.54571428571434,65.33857142857148,69.4528571428572,71.15000000000006,66.97142857142862,65.98142857142861
WTH84,65.69857142857144,61.61000000000001,67.8457142857143,64.42571428571426,69.23428571428568,71.66428571428564,74.05571428571423,77.08999999999993,75.90714285714277,72.65428571428563,68.1157142857142,68.79714285714279,67.6914285714285,68.96428571428564,65.42857142857137,56.35142857142853
WTH85,57.894285714285715,63.332857142857144,66.67571428571428,63.10142857142856,64.69571428571429,63.35857142857144,69.92857142857143,65.04285714285717,64.64428571428573,74.0557142857143,69.46571428571428,72.79571428571425,69.79999999999998,72.74428571428574,66.29000000000003,58.64000000000002
WTH86,63.91142857142857,62.162857142857135,67.21571428571427,68.96428571428571,66.54714285714284,66.91999999999997,64.18142857142858,68.23142857142857,65.48,69.68428571428572,65.36428571428571,72.42285714285717,70.87999999999998,71.25285714285714,60.85142857142858,57.161428571428566
WTH87,63.91142857142857,62.162857142857135,67.21571428571427,68.96428571428571,66.54714285714284,66.91999999999997,64.18142857142858,68.23142857142857,65.48,69.68428571428572,65.36428571428571,72.42285714285717,70.87999999999998,71.25285714285714,60.85142857142858,57.161428571428566
WTH88,59.24428571428571,62.239999999999995,74.54428571428572,64.85,67.21571428571431,68.95142857142862,69.10571428571433,69.73571428571431,67.92285714285718,63.011428571428596,63.654285714285734,67.75571428571432,67.80714285714286,59.42428571428572,66.65000000000002,67.91000000000001
WTH89,65.69857142857144,61.61000000000001,67.8457142857143,64.42571428571426,69.23428571428568,71.66428571428564,74.05571428571423,77.08999999999993,75.90714285714277,72.65428571428563,68.1157142857142,68.79714285714279,67.6914285714285,68.96428571428564,65.42857142857137,56.35142857142853
WTH90,65.69857142857144,61.61000000000001,67.8457142857143,64.42571428571426,69.23428571428568,71.66428571428564,74.05571428571423,77.08999999999993,75.90714285714277,72.65428571428563,68.1157142857142,68.79714285714279,67.6914285714285,68.96428571428564,65.42857142857137,56.35142857142853
WTH91,60.902857142857144,65.72428571428571,63.42285714285713,58.89714285714285,67.89714285714288,67.73000000000003,68.55285714285718,68.11571428571433,69.58142857142863,67.52428571428577,61.54571428571434,65.33857142857148,69.4528571428572,71.15000000000006,66.97142857142862,65.98142857142861
WTH92,57.894285714285715,63.332857142857144,66.67571428571428,63.10142857142856,64.69571428571429,63.35857142857144,69.92857142857143,65.04285714285717,64.64428571428573,74.0557142857143,69.46571428571428,72.79571428571425,69.79999999999998,72.74428571428574,66.29000000000003,58.64000000000002
WTH93,59.051428571428566,65.19714285714285,65.71142857142856,65.57,62.89571428571427,65.72428571428568,69.54285714285713,70.50714285714285,73.87571428571427,69.79999999999998,72.01142857142858,70.28857142857144,64.67000000000004,74.2228571428572,65.37714285714287,67.38285714285719
WTH94,60.902857142857144,65.72428571428571,63.42285714285713,58.89714285714285,67.89714285714288,67.73000000000003,68.55285714285718,68.11571428571433,69.58142857142863,67.52428571428577,61.54571428571434,65.33857142857148,69.4528571428572,71.15000000000006,66.97142857142862,65.98142857142861
WTH95,63.410000000000004,65.36428571428571,68.39857142857143,70.14714285714285,66.53428571428572,74.63428571428571,74.31285714285711,73.72142857142853,72.16571428571424,74.27428571428571,75.93285714285712,71.79285714285713,70.84142857142858,67.33142857142857,61.35285714285715,59.180000000000014
WTH96,59.24428571428571,62.239999999999995,74.54428571428572,64.85,67.21571428571431,68.95142857142862,69.10571428571433,69.73571428571431,67.92285714285718,63.011428571428596,63.654285714285734,67.75571428571432,67.80714285714286,59.42428571428572,66.65000000000002,67.91000000000001
WTH97,59.051428571428566,65.19714285714285,65.71142857142856,65.57,62.89571428571427,65.72428571428568,69.54285714285713,70.50714285714285,73.87571428571427,69.79999999999998,72.01142857142858,70.28857142857144,64.67000000000004,74.2228571428572,65.37714285714287,67.38285714285719
WTH98,60.902857142857144,65.72428571428571,63.42285714285713,58.89714285714285,67.89714285714288,67.73000000000003,68.55285714285718,68.11571428571433,69.58142857142863,67.52428571428577,61.54571428571434,65.33857142857148,69.4528571428572,71.15000000000006,66.97142857142862,65.98142857142861
WTH99,63.410000000000004,65.36428571428571,68.39857142857143,70.14714285714285,66.53428571428572,74.63428571428571,74.31285714285711,73.72142857142853,72.16571428571424,74.27428571428571,75.93285714285712,71.79285714285713,70.84142857142858,67.33142857142857,61.35285714285715,59.180000000000014
WTH100,59.051428571428566,65.19714285714285,65.71142857142856,65.57,62.89571428571427,65.72428571428568,69.54285714285713,70.50714285714285,73.87571428571427,69.79999999999998,72.01142857142858,70.28857142857144,64.67000000000004,74.2228571428572,65.37714285714287,67.38285714285719
WTH101,57.894285714285715,63.332857142857144,66.67571428571428,63.10142857142856,64.69571428571429,63.35857142857144,69.92857142857143,65.04285714285717,64.64428571428573,74.0557142857143,69.46571428571428,72.79571428571425,69.79999999999998,72.74428571428574,66.29000000000003,58.64000000000002
WTH102,64.88857142857144,67.71714285714289,60.02857142857145,66.22571428571432,64.33571428571432,69.98000000000005,71.03428571428576,69.02857142857148,73.27142857142864,70.49428571428578,66.03285714285721,72.25571428571435,68.3985714285715,68.56571428571438,63.46142857142867,60.91571428571437
WTH103,58.48571428571428,63.70571428571428,64.74714285714286,69.31142857142856,67.38285714285713,64.12999999999998,72.92428571428567,70.28857142857137,70.26285714285709,67.65285714285707,67.04857142857135,62.80571428571424,66.03285714285711,63.49999999999995,63.847142857142806,65.77571428571423
WTH104,63.91142857142857,62.162857142857135,67.21571428571427,68.96428571428571,66.54714285714284,66.91999999999997,64.18142857142858,68.23142857142857,65.48,69.68428571428572,65.36428571428571,72.42285714285717,70.87999999999998,71.25285714285714,60.85142857142858,57.161428571428566
WTH105,56.942857142857136,65.10714285714286,65.13285714285715,63.68,70.21142857142857,67.80714285714286,68.09000000000002,67.57571428571428,68.64285714285715,65.6857142857143,68.07714285714287,69.90285714285714,72.19142857142859,72.25571428571429,69.71000000000001,56.95571428571429
WTH106,60.902857142857144,65.72428571428571,63.42285714285713,58.89714285714285,67.89714285714288,67.73000000000003,68.55285714285718,68.11571428571433,69.58142857142863,67.52428571428577,61.54571428571434,65.33857142857148,69.4528571428572,71.15000000000006,66.97142857142862,65.98142857142861
WTH107,57.894285714285715,63.332857142857144,66.67571428571428,63.10142857142856,64.69571428571429,63.35857142857144,69.92857142857143,65.04285714285717,64.64428571428573,74.0557142857143,69.46571428571428,72.79571428571425,69.79999999999998,72.74428571428574,66.29000000000003,58.64000000000002
WTH108,60.748571428571424,60.092857142857156,61.48142857142859,69.58142857142859,68.36000000000004,73.16857142857147,68.1157142857143,72.83428571428574,70.5457142857143,67.31857142857146,68.90000000000002,68.01285714285719,68.72000000000003,66.53428571428573,65.22285714285718,59.501428571428605
WTH109,64.88857142857144,67.71714285714289,60.02857142857145,66.22571428571432,64.33571428571432,69.98000000000005,71.03428571428576,69.02857142857148,73.27142857142864,70.49428571428578,66.03285714285721,72.25571428571435,68.3985714285715,68.56571428571438,63.46142857142867,60.91571428571437
WTH110,58.48571428571428,63.70571428571428,64.74714285714286,69.31142857142856,67.38285714285713,64.12999999999998,72.92428571428567,70.28857142857137,70.26285714285709,67.65285714285707,67.04857142857135,62.80571428571424,66.03285714285711,63.49999999999995,63.847142857142806,65.77571428571423
WTH111,60.902857142857144,65.72428571428571,63.42285714285713,58.89714285714285,67.89714285714288,67.73000000000003,68.55285714285718,68.11571428571433,69.58142857142863,67.52428571428577,61.54571428571434,65.33857142857148,69.4528571428572,71.15000000000006,66.97142857142862,65.98142857142861
WTH112,55.81142857142857,61.41714285714287,64.2842857142857,69.33714285714284,72.16571428571426,70.03142857142856,69.65857142857139,69.0028571428571,72.21714285714279,71.2914285714285,75.26428571428565,73.82428571428566,72.34571428571422,64.0914285714285,71.61285714285707,65.86571428571423
WTH113,56.942857142857136,65.10714285714286,65.13285714285715,63.68,70.21142857142857,67.80714285714286,68.09000000000002,67.57571428571428,68.64285714285715,65.6857142857143,68.07714285714287,69.90285714285714,72.19142857142859,72.25571428571429,69.71000000000001,56.95571428571429
WTH114,58.48571428571428,63.70571428571428,64.74714285714286,69.31142857142856,67.38285714285713,64.12999999999998,72.92428571428567,70.28857142857137,70.26285714285709,67.65285714285707,67.04857142857135,62.80571428571424,66.03285714285711,63.49999999999995,63.847142857142806,65.77571428571423
WTH115,57.894285714285715,63.332857142857144,66.67571428571428,63.10142857142856,64.69571428571429,63.35857142857144,69.92857142857143,65.04285714285717,64.64428571428573,74.0557142857143,69.46571428571428,72.79571428571425,69.79999999999998,72.74428571428574,66.29000000000003,58.64000000000002
WTH116,53.690000000000005,64.63142857142859,64.3742857142857,65.53142857142856,68.99000000000002,71.34285714285716,68.14142857142859,67.84571428571432,69.29857142857146,63.70571428571431,73.73428571428575,71.26571428571432,74.50571428571433,62.8571428571429,60.49142857142859,55.67000000000003
WTH117,64.88857142857144,67.71714285714289,60.02857142857145,66.22571428571432,64.33571428571432,69.98000000000005,71.03428571428576,69.02857142857148,73.27142857142864,70.49428571428578,66.03285714285721,72.25571428571435,68.3985714285715,68.56571428571438,63.46142857142867,60.91571428571437
WTH118,60.902857142857144,65.72428571428571,63.42285714285713,58.89714285714285,67.89714285714288,67.73000000000003,68.55285714285718,68.11571428571433,69.58142857142863,67.52428571428577,61.54571428571434,65.33857142857148,69.4528571428572,71.15000000000006,66.97142857142862,65.98142857142861
WTH119,63.91142857142857,62.162857142857135,67.21571428571427,68.96428571428571,66.54714285714284,66.91999999999997,64.18142857142858,68.23142857142857,65.48,69.68428571428572,65.36428571428571,72.42285714285717,70.87999999999998,71.25285714285714,60.85142857142858,57.161428571428566
WTH120,64.88857142857144,67.71714285714289,60.02857142857145,66.22571428571432,64.33571428571432,69.98000000000005,71.03428571428576,69.02857142857148,73.27142857142864,70.49428571428578,66.03285714285721,72.25571428571435,68.3985714285715,68.56571428571438,63.46142857142867,60.91571428571437
WTH121,63.91142857142857,62.162857142857135,67.21571428571427,68.96428571428571,66.54714285714284,66.91999999999997,64.18142857142858,68.23142857142857,65.48,69.68428571428572,65.36428571428571,72.42285714285717,70.87999999999998,71.25285714285714,60.85142857142858,57.161428571428566
WTH122,63.91142857142857,62.162857142857135,67.21571428571427,68.96428571428571,66.54714285714284,66.91999999999997,64.18142857142858,68.23142857142857,65.48,69.68428571428572,65.36428571428571,72.42285714285717,70.87999999999998,71.25285714285714,60.85142857142858,57.161428571428566
WTH123,64.88857142857144,67.71714285714289,60.02857142857145,66.22571428571432,64.33571428571432,69.98000000000005,71.03428571428576,69.02857142857148,73.27142857142864,70.49428571428578,66.03285714285721,72.25571428571435,68.3985714285715,68.56571428571438,63.46142857142867,60.91571428571437
WTH124,53.690000000000005,64.63142857142859,64.3742857142857,65.53142857142856,68.99000000000002,71.34285714285716,68.14142857142859,67.84571428571432,69.29857142857146,63.70571428571431,73.73428571428575,71.26571428571432,74.50571428571433,62.8571428571429,60.49142857142859,55.67000000000003
WTH125,55.81142857142857,61.41714285714287,64.2842857142857,69.33714285714284,72.16571428571426,70.03142857142856,69.65857142857139,69.0028571428571,72.21714285714279,71.2914285714285,75.26428571428565,73.82428571428566,72.34571428571422,64.0914285714285,71.61285714285707,65.86571428571423
WTH126,56.942857142857136,65.10714285714286,65.13285714285715,63.68,70.21142857142857,67.80714285714286,68.09000000000002,67.57571428571428,68.64285714285715,65.6857142857143,68.07714285714287,69.90285714285714,72.19142857142859,72.25571428571429,69.71000000000001,56.95571428571429
WTH127,56.942857142857136,65.10714285714286,65.13285714285715,63.68,70.21142857142857,67.80714285714286,68.09000000000002,67.57571428571428,68.64285714285715,65.6857142857143,68.07714285714287,69.90285714285714,72.19142857142859,72.25571428571429,69.71000000000001,56.95571428571429
WTH128,59.24428571428571,62.239999999999995,74.54428571428572,64.85,67.21571428571431,68.95142857142862,69.10571428571433,69.73571428571431,67.92285714285718,63.011428571428596,63.654285714285734,67.75571428571432,67.80714285714286,59.42428571428572,66.65000000000002,67.91000000000001
WTH129,55.81142857142857,61.41714285714287,64.2842857142857,69.33714285714284,72.16571428571426,70.03142857142856,69.65857142857139,69.0028571428571,72.21714285714279,71.2914285714285,75.26428571428565,73.82428571428566,72.34571428571422,64.0914285714285,71.61285714285707,65.86571428571423
WTH130,58.48571428571428,63.70571428571428,64.74714285714286,69.31142857142856,67.38285714285713,64.12999999999998,72.92428571428567,70.28857142857137,70.26285714285709,67.65285714285707,67.04857142857135,62.80571428571424,66.03285714285711,63.49999999999995,63.847142857142806,65.77571428571423
WTH131,55.81142857142857,61.41714285714287,64.2842857142857,69.33714285714284,72.16571428571426,70.03142857142856,69.65857142857139,69.0028571428571,72.21714285714279,71.2914285714285,75.26428571428565,73.82428571428566,72.34571428571422,64.0914285714285,71.61285714285707,65.86571428571423
WTH132,60.902857142857144,65.72428571428571,63.42285714285713,58.89714285714285,67.89714285714288,67.73000000000003,68.55285714285718,68.11571428571433,69.58142857142863,67.52428571428577,61.54571428571434,65.33857142857148,69.4528571428572,71.15000000000006,66.97142857142862,65.98142857142861
WTH133,60.902857142857144,65.72428571428571,63.42285714285713,58.89714285714285,67.89714285714288,67.73000000000003,68.55285714285718,68.11571428571433,69.58142857142863,67.52428571428577,61.54571428571434,65.33857142857148,69.4528571428572,71.15000000000006,66.97142857142862,65.98142857142861
WTH134,53.690000000000005,64.63142857142859,64.3742857142857,65.53142857142856,68.99000000000002,71.34285714285716,68.14142857142859,67.84571428571432,69.29857142857146,63.70571428571431,73.73428571428575,71.26571428571432,74.50571428571433,62.8571428571429,60.49142857142859,55.67000000000003
WTH135,56.942857142857136,65.10714285714286,65.13285714285715,63.68,70.21142857142857,67.80714285714286,68.09000000000002,67.57571428571428,68.64285714285715,65.6857142857143,68.07714285714287,69.90285714285714,72.19142857142859,72.25571428571429,69.71000000000001,56.95571428571429
WTH136,64.88857142857144,67.71714285714289,60.02857142857145,66.22571428571432,64.33571428571432,69.98000000000005,71.03428571428576,69.02857142857148,73.27142857142864,70.49428571428578,66.03285714285721,72.25571428571435,68.3985714285715,68.56571428571438,63.46142857142867,60.91571428571437
WTH137,56.63428571428572,59.925714285714285,66.84285714285714,72.50000000000003,61.98285714285716,64.73428571428575,63.307142857142914,66.88142857142861,67.56285714285718,69.36285714285717,72.02428571428572,67.57571428571431,62.420000000000016,62.111428571428576,67.08714285714287,63.37142857142857
WTH138,56.63428571428572,59.925714285714285,66.84285714285714,72.50000000000003,61.98285714285716,64.73428571428575,63.307142857142914,66.88142857142861,67.56285714285718,69.36285714285717,72.02428571428572,67.57571428571431,62.420000000000016,62.111428571428576,67.08714285714287,63.37142857142857
WTH139,63.91142857142857,62.162857142857135,67.21571428571427,68.96428571428571,66.54714285714284,66.91999999999997,64.18142857142858,68.23142857142857,65.48,69.68428571428572,65.36428571428571,72.42285714285717,70.87999999999998,71.25285714285714,60.85142857142858,57.161428571428566
WTH140,53.690000000000005,64.63142857142859,64.3742857142857,65.53142857142856,68.99000000000002,71.34285714285716,68.14142857142859,67.84571428571432,69.29857142857146,63.70571428571431,73.73428571428575,71.26571428571432,74.50571428571433,62.8571428571429,60.49142857142859,55.67000000000003
WTH141,56.942857142857136,65.10714285714286,65.13285714285715,63.68,70.21142857142857,67.80714285714286,68.09000000000002,67.57571428571428,68.64285714285715,65.6857142857143,68.07714285714287,69.90285714285714,72.19142857142859,72.25571428571429,69.71000000000001,56.95571428571429
WTH142,59.24428571428571,62.239999999999995,74.54428571428572,64.85,67.21571428571431,68.95142857142862,69.10571428571433,69.73571428571431,67.92285714285718,63.011428571428596,63.654285714285734,67.75571428571432,67.80714285714286,59.42428571428572,66.65000000000002,67.91000000000001
WTH143,63.91142857142857,62.162857142857135,67.21571428571427,68.96428571428571,66.54714285714284,66.91999999999997,64.18142857142858,68.23142857142857,65.48,69.68428571428572,65.36428571428571,72.42285714285717,70.87999999999998,71.25285714285714,60.85142857142858,57.161428571428566
WTH144,57.894285714285715,63.332857142857144,66.67571428571428,63.10142857142856,64.69571428571429,63.35857142857144,69.92857142857143,65.04285714285717,64.64428571428573,74.0557142857143,69.46571428571428,72.79571428571425,69.79999999999998,72.74428571428574,66.29000000000003,58.64000000000002
WTH145,58.48571428571428,63.70571428571428,64.74714285714286,69.31142857142856,67.38285714285713,64.12999999999998,72.92428571428567,70.28857142857137,70.26285714285709,67.65285714285707,67.04857142857135,62.80571428571424,66.03285714285711,63.49999999999995,63.847142857142806,65.77571428571423
WTH146,56.942857142857136,65.10714285714286,65.13285714285715,63.68,70.21142857142857,67.80714285714286,68.09000000000002,67.57571428571428,68.64285714285715,65.6857142857143,68.07714285714287,69.90285714285714,72.19142857142859,72.25571428571429,69.71000000000001,56.95571428571429
WTH147,64.88857142857144,67.71714285714289,60.02857142857145,66.22571428571432,64.33571428571432,69.98000000000005,71.03428571428576,69.02857142857148,73.27142857142864,70.49428571428578,66.03285714285721,72.25571428571435,68.3985714285715,68.56571428571438,63.46142857142867,60.91571428571437
WTH148,60.902857142857144,65.72428571428571,63.42285714285713,58.89714285714285,67.89714285714288,67.73000000000003,68.55285714285718,68.11571428571433,69.58142857142863,67.52428571428577,61.54571428571434,65.33857142857148,69.4528571428572,71.15000000000006,66.97142857142862,65.98142857142861
WTH149,55.81142857142857,61.41714285714287,64.2842857142857,69.33714285714284,72.16571428571426,70.03142857142856,69.65857142857139,69.0028571428571,72.21714285714279,71.2914285714285,75.26428571428565,73.82428571428566,72.34571428571422,64.0914285714285,71.61285714285707,65.86571428571423
WTH150,60.902857142857144,65.72428571428571,63.42285714285713,58.89714285714285,67.89714285714288,67.73000000000003,68.55285714285718,68.11571428571433,69.58142857142863,67.52428571428577,61.54571428571434,65.33857142857148,69.4528571428572,71.15000000000006,66.97142857142862,65.98142857142861
WTH151,59.24428571428571,62.239999999999995,74.54428571428572,64.85,67.21571428571431,68.95142857142862,69.10571428571433,69.73571428571431,67.92285714285718,63.011428571428596,63.654285714285734,67.75571428571432,67.80714285714286,59.42428571428572,66.65000000000002,67.91000000000001
WTH152,58.48571428571428,63.70571428571428,64.74714285714286,69.31142857142856,67.38285714285713,64.12999999999998,72.92428571428567,70.28857142857137,70.26285714285709,67.65285714285707,67.04857142857135,62.80571428571424,66.03285714285711,63.49999999999995,63.847142857142806,65.77571428571423
WTH153,61.790000000000006,64.61857142857143,60.44,57.52142857142858,67.35714285714285,67.2285714285714,65.80142857142856,63.93714285714287,64.33571428571429,65.67285714285715,62.26571428571429,63.89857142857144,64.90142857142858,65.15857142857145,60.65857142857144,63.782857142857154
WTH154,63.91142857142857,62.162857142857135,67.21571428571427,68.96428571428571,66.54714285714284,66.91999999999997,64.18142857142858,68.23142857142857,65.48,69.68428571428572,65.36428571428571,72.42285714285717,70.87999999999998,71.25285714285714,60.85142857142858,57.161428571428566
WTH155,63.91142857142857,62.162857142857135,67.21571428571427,68.96428571428571,66.54714285714284,66.91999999999997,64.18142857142858,68.23142857142857,65.48,69.68428571428572,65.36428571428571,72.42285714285717,70.87999999999998,71.25285714285714,60.85142857142858,57.161428571428566
WTH156,56.942857142857136,65.10714285714286,65.13285714285715,63.68,70.21142857142857,67.80714285714286,68.09000000000002,67.57571428571428,68.64285714285715,65.6857142857143,68.07714285714287,69.90285714285714,72.19142857142859,72.25571428571429,69.71000000000001,56.95571428571429
WTH157,55.81142857142857,61.41714285714287,64.2842857142857,69.33714285714284,72.16571428571426,70.03142857142856,69.65857142857139,69.0028571428571,72.21714285714279,71.2914285714285,75.26428571428565,73.82428571428566,72.34571428571422,64.0914285714285,71.61285714285707,65.86571428571423
WTH158,59.24428571428571,62.239999999999995,74.54428571428572,64.85,67.21571428571431,68.95142857142862,69.10571428571433,69.73571428571431,67.92285714285718,63.011428571428596,63.654285714285734,67.75571428571432,67.80714285714286,59.42428571428572,66.65000000000002,67.91000000000001
WTH159,53.690000000000005,64.63142857142859,64.3742857142857,65.53142857142856,68.99000000000002,71.34285714285716,68.14142857142859,67.84571428571432,69.29857142857146,63.70571428571431,73.73428571428575,71.26571428571432,74.50571428571433,62.8571428571429,60.49142857142859,55.67000000000003
WTH160,63.91142857142857,62.162857142857135,67.21571428571427,68.96428571428571,66.54714285714284,66.91999999999997,64.18142857142858,68.23142857142857,65.48,69.68428571428572,65.36428571428571,72.42285714285717,70.87999999999998,71.25285714285714,60.85142857142858,57.161428571428566
WTH161,59.24428571428571,62.239999999999995,74.54428571428572,64.85,67.21571428571431,68.95142857142862,69.10571428571433,69.73571428571431,67.92285714285718,63.011428571428596,63.654285714285734,67.75571428571432,67.80714285714286,59.42428571428572,66.65000000000002,67.91000000000001
WTH162,60.902857142857144,65.72428571428571,63.42285714285713,58.89714285714285,67.89714285714288,67.73000000000003,68.55285714285718,68.11571428571433,69.58142857142863,67.52428571428577,61.54571428571434,65.33857142857148,69.4528571428572,71.15000000000006,66.97142857142862,65.98142857142861
WTH163,57.894285714285715,63.332857142857144,66.67571428571428,63.10142857142856,64.69571428571429,63.35857142857144,69.92857142857143,65.04285714285717,64.64428571428573,74.0557142857143,69.46571428571428,72.79571428571425,69.79999999999998,72.74428571428574,66.29000000000003,58.64000000000002
WTH164,57.894285714285715,63.332857142857144,66.67571428571428,63.10142857142856,64.69571428571429,63.35857142857144,69.92857142857143,65.04285714285717,64.64428571428573,74.0557142857143,69.46571428571428,72.79571428571425,69.79999999999998,72.74428571428574,66.29000000000003,58.64000000000002
WTH165,55.81142857142857,61.41714285714287,64.2842857142857,69.33714285714284,72.16571428571426,70.03142857142856,69.65857142857139,69.0028571428571,72.21714285714279,71.2914285714285,75.26428571428565,73.82428571428566,72.34571428571422,64.0914285714285,71.61285714285707,65.86571428571423
WTH166,56.942857142857136,65.10714285714286,65.13285714285715,63.68,70.21142857142857,67.80714285714286,68.09000000000002,67.57571428571428,68.64285714285715,65.6857142857143,68.07714285714287,69.90285714285714,72.19142857142859,72.25571428571429,69.71000000000001,56.95571428571429
WTH167,60.902857142857144,65.72428571428571,63.42285714285713,58.89714285714285,67.89714285714288,67.73000000000003,68.55285714285718,68.11571428571433,69.58142857142863,67.52428571428577,61.54571428571434,65.33857142857148,69.4528571428572,71.15000000000006,66.97142857142862,65.98142857142861
WTH168,58.48571428571428,63.70571428571428,64.74714285714286,69.31142857142856,67.38285714285713,64.12999999999998,72.92428571428567,70.28857142857137,70.26285714285709,67.65285714285707,67.04857142857135,62.80571428571424,66.03285714285711,63.49999999999995,63.847142857142806,65.77571428571423
WTH169,60.748571428571424,60.092857142857156,61.48142857142859,69.58142857142859,68.36000000000004,73.16857142857147,68.1157142857143,72.83428571428574,70.5457142857143,67.31857142857146,68.90000000000002,68.01285714285719,68.72000000000003,66.53428571428573,65.22285714285718,59.501428571428605
WTH170,63.91142857142857,62.162857142857135,67.21571428571427,68.96428571428571,66.54714285714284,66.91999999999997,64.18142857142858,68.23142857142857,65.48,69.68428571428572,65.36428571428571,72.42285714285717,70.87999999999998,71.25285714285714,60.85142857142858,57.161428571428566
WTH171,63.91142857142857,62.162857142857135,67.21571428571427,68.96428571428571,66.54714285714284,66.91999999999997,64.18142857142858,68.23142857142857,65.48,69.68428571428572,65.36428571428571,72.42285714285717,70.87999999999998,71.25285714285714,60.85142857142858,57.161428571428566
WTH172,55.81142857142857,61.41714285714287,64.2842857142857,69.33714285714284,72.16571428571426,70.03142857142856,69.65857142857139,69.0028571428571,72.21714285714279,71.2914285714285,75.26428571428565,73.82428571428566,72.34571428571422,64.0914285714285,71.61285714285707,65.86571428571423
WTH173,59.051428571428566,65.19714285714285,65.71142857142856,65.57,62.89571428571427,65.72428571428568,69.54285714285713,70.50714285714285,73.87571428571427,69.79999999999998,72.01142857142858,70.28857142857144,64.67000000000004,74.2228571428572,65.37714285714287,67.38285714285719
WTH174,63.41000000000001,64.47714285714287,70.09571428571427,69.5685714285714,66.04571428571425,73.78571428571426,71.99857142857145,77.38571428571429,72.44857142857146,74.41571428571426,76.13857142857144,70.15999999999998,71.74142857142856,68.02571428571426,69.40142857142855,67.29285714285712
WTH175,56.6857142857143,63.602857142857154,64.83714285714287,71.54857142857144,66.22571428571429,70.49428571428572,77.34714285714287,67.3957142857143,63.76999999999999,66.95857142857145,63.46142857142859,69.74857142857145,74.62142857142858,66.93285714285717,69.40142857142862,60.62000000000007
WTH176,56.6857142857143,63.602857142857154,64.83714285714287,71.54857142857144,66.22571428571429,70.49428571428572,77.34714285714287,67.3957142857143,63.76999999999999,66.95857142857145,63.46142857142859,69.74857142857145,74.62142857142858,66.93285714285717,69.40142857142862,60.62000000000007
WTH177,56.6857142857143,63.602857142857154,64.83714285714287,71.54857142857144,66.22571428571429,70.49428571428572,77.34714285714287,67.3957142857143,63.76999999999999,66.95857142857145,63.46142857142859,69.74857142857145,74.62142857142858,66.93285714285717,69.40142857142862,60.62000000000007
WTH178,64.42571428571429,58.871428571428574,71.11142857142858,71.71571428571431,66.57285714285719,67.76857142857149,74.87857142857148,72.69285714285719,74.36428571428574,74.36428571428574,79.2628571428572,73.59285714285718,71.79285714285719,69.80000000000005,60.69714285714292,59.07714285714292
WTH179,60.05428571428571,65.28714285714285,65.17142857142856,72.25571428571428,74.92999999999996,69.90285714285712,74.55714285714282,73.8885714285714,76.60142857142853,70.09571428571424,73.51571428571422,70.19857142857136,70.05714285714278,70.80285714285706,71.75428571428566,68.32142857142851
WTH180,53.30428571428571,67.29285714285716,65.87857142857143,67.24142857142859,64.63142857142859,68.1542857142857,72.3842857142857,75.3542857142857,74.38999999999999,78.45285714285714,68.71999999999998,68.83571428571426,71.05999999999993,65.31285714285707,66.95857142857137,60.72285714285708
WTH181,56.6857142857143,63.602857142857154,64.83714285714287,71.54857142857144,66.22571428571429,70.49428571428572,77.34714285714287,67.3957142857143,63.76999999999999,66.95857142857145,63.46142857142859,69.74857142857145,74.62142857142858,66.93285714285717,69.40142857142862,60.62000000000007
WTH182,63.41000000000001,64.47714285714287,70.09571428571427,69.5685714285714,66.04571428571425,73.78571428571426,71.99857142857145,77.38571428571429,72.44857142857146,74.41571428571426,76.13857142857144,70.15999999999998,71.74142857142856,68.02571428571426,69.40142857142855,67.29285714285712
WTH183,60.05428571428571,65.28714285714285,65.17142857142856,72.25571428571428,74.92999999999996,69.90285714285712,74.55714285714282,73.8885714285714,76.60142857142853,70.09571428571424,73.51571428571422,70.19857142857136,70.05714285714278,70.80285714285706,71.75428571428566,68.32142857142851
WTH184,56.6857142857143,63.602857142857154,64.83714285714287,71.54857142857144,66.22571428571429,70.49428571428572,77.34714285714287,67.3957142857143,63.76999999999999,66.95857142857145,63.46142857142859,69.74857142857145,74.62142857142858,66.93285714285717,69.40142857142862,60.62000000000007
WTH185,56.6857142857143,63.602857142857154,64.83714285714287,71.54857142857144,66.22571428571429,70.49428571428572,77.34714285714287,67.3957142857143,63.76999999999999,66.95857142857145,63.46142857142859,69.74857142857145,74.62142857142858,66.93285714285717,69.40142857142862,60.62000000000007
WTH186,56.6857142857143,63.602857142857154,64.83714285714287,71.54857142857144,66.22571428571429,70.49428571428572,77.34714285714287,67.3957142857143,63.76999999999999,66.95857142857145,63.46142857142859,69.74857142857145,74.62142857142858,66.93285714285717,69.40142857142862,60.62000000000007
WTH187,56.6857142857143,63.602857142857154,64.83714285714287,71.54857142857144,66.22571428571429,70.49428571428572,77.34714285714287,67.3957142857143,63.76999999999999,66.95857142857145,63.46142857142859,69.74857142857145,74.62142857142858,66.93285714285717,69.40142857142862,60.62000000000007
WTH188,60.748571428571424,60.092857142857156,61.48142857142859,69.58142857142859,68.36000000000004,73.16857142857147,68.1157142857143,72.83428571428574,70.5457142857143,67.31857142857146,68.90000000000002,68.01285714285719,68.72000000000003,66.53428571428573,65.22285714285718,59.501428571428605
WTH189,56.6857142857143,63.602857142857154,64.83714285714287,71.54857142857144,66.22571428571429,70.49428571428572,77.34714285714287,67.3957142857143,63.76999999999999,66.95857142857145,63.46142857142859,69.74857142857145,74.62142857142858,66.93285714285717,69.40142857142862,60.62000000000007
WTH190,57.457142857142856,67.67857142857142,64.6185714285714,66.17428571428567,68.15428571428568,67.92285714285717,67.69142857142859,65.46714285714287,71.44571428571429,69.64571428571428,70.05714285714286,64.83714285714284,71.34285714285714,69.63285714285716,69.83857142857148,60.08000000000004
WTH191,59.051428571428566,65.19714285714285,65.71142857142856,65.57,62.89571428571427,65.72428571428568,69.54285714285713,70.50714285714285,73.87571428571427,69.79999999999998,72.01142857142858,70.28857142857144,64.67000000000004,74.2228571428572,65.37714285714287,67.38285714285719
WTH192,60.748571428571424,60.092857142857156,61.48142857142859,69.58142857142859,68.36000000000004,73.16857142857147,68.1157142857143,72.83428571428574,70.5457142857143,67.31857142857146,68.90000000000002,68.01285714285719,68.72000000000003,66.53428571428573,65.22285714285718,59.501428571428605
WTH193,64.42571428571429,58.871428571428574,71.11142857142858,71.71571428571431,66.57285714285719,67.76857142857149,74.87857142857148,72.69285714285719,74.36428571428574,74.36428571428574,79.2628571428572,73.59285714285718,71.79285714285719,69.80000000000005,60.69714285714292,59.07714285714292
WTH194,64.42571428571429,58.871428571428574,71.11142857142858,71.71571428571431,66.57285714285719,67.76857142857149,74.87857142857148,72.69285714285719,74.36428571428574,74.36428571428574,79.2628571428572,73.59285714285718,71.79285714285719,69.80000000000005,60.69714285714292,59.07714285714292
WTH195,59.051428571428566,65.19714285714285,65.71142857142856,65.57,62.89571428571427,65.72428571428568,69.54285714285713,70.50714285714285,73.87571428571427,69.79999999999998,72.01142857142858,70.28857142857144,64.67000000000004,74.2228571428572,65.37714285714287,67.38285714285719
WTH196,64.20714285714287,60.285714285714285,69.85142857142857,66.41857142857143,68.16714285714285,70.00571428571426,75.84285714285713,72.13999999999999,79.93142857142857,72.57714285714282,69.41428571428568,70.67428571428569,70.59714285714283,65.92999999999996,63.731428571428545,61.99571428571425
WTH197,62.51,70.40428571428573,67.33142857142859,63.38428571428575,69.60714285714288,71.60000000000001,69.5557142857143,72.41,71.43285714285715,67.76857142857143,70.2371428571429,71.00857142857146,64.82428571428575,62.201428571428615,60.2471428571429,70.63571428571434
WTH198,64.42571428571429,58.871428571428574,71.11142857142858,71.71571428571431,66.57285714285719,67.76857142857149,74.87857142857148,72.69285714285719,74.36428571428574,74.36428571428574,79.2628571428572,73.59285714285718,71.79285714285719,69.80000000000005,60.69714285714292,59.07714285714292
WTH199,65.69857142857144,61.61000000000001,67.8457142857143,64.42571428571426,69.23428571428568,71.66428571428564,74.05571428571423,77.08999999999993,75.90714285714277,72.65428571428563,68.1157142857142,68.79714285714279,67.6914285714285,68.96428571428564,65.42857142857137,56.35142857142853
WTH200,59.051428571428566,65.19714285714285,65.71142857142856,65.57,62.89571428571427,65.72428571428568,69.54285714285713,70.50714285714285,73.87571428571427,69.79999999999998,72.01142857142858,70.28857142857144,64.67000000000004,74.2228571428572,65.37714285714287,67.38285714285719
