1988, 1,  58.4
1988, 2,  36.2
1988, 3,  52.2
1988, 4,  92.4
1988, 5,  25.9
1988, 6,  16.0
1988, 7,  65.2
1988, 8,  87.1
1988, 9, 155.8
1988,10, 123.6
1988,11, 143.3
1988,12,  52.2
1989, 1,  29.4
1989, 2,  27.9
1989, 3,  60.1
1989, 4,  40.6
1989, 5, 150.8
1989, 6,  70.3
1989, 7,  59.9
1989, 8, 121.9
1989, 9,  68.0
1989,10,  37.1
1989,11,  92.9
1989,12,  37.3
1990, 1,  53.4
1990, 2,  68.7
1990, 3,  60.9
1990, 4,  60.0
1990, 5, 136.0
1990, 6,  89.7
1990, 7,  83.1
1990, 8,  86.5
1990, 9,  95.7
1990,10, 144.7
1990,11, 162.7
1990,12,  68.7
1991, 1,  34.6
1991, 2,  21.4
1991, 3,  96.5
1991, 4, 122.5
1991, 5,  87.9
1991, 6,  71.8
1991, 7, 108.8
1991, 8,  83.7
1991, 9,  70.9
1991,10, 182.2
1991,11, 108.8
1991,12,  56.8
1992, 1,  49.2
1992, 2,  32.8
1992, 3,  64.7
1992, 4,  82.2
1992, 5,  29.0
1992, 6,  47.2
1992, 7, 149.3
1992, 8,  75.4
1992, 9, 123.7
1992,10,  58.6
1992,11, 137.9
1992,12,  69.5
1993, 1,  88.0
1993, 2,  33.6
1993, 3,  57.6
1993, 4, 125.5
1993, 5,  60.6
1993, 6, 154.5
1993, 7,  82.4
1993, 8, 145.6
1993, 9, 155.0
1993,10,  84.5
1993,11,  49.9
1993,12,  35.0
1994, 1,  69.0
1994, 2,  53.8
1994, 3,  32.1
1994, 4,  85.2
1994, 5,  37.9
1994, 6, 155.9
1994, 7, 115.5
1994, 8, 135.4
1994, 9,  63.8
1994,10,  70.4
1994,11, 118.7
1994,12,  38.6
1995, 1,  71.7
1995, 2,  27.3
1995, 3,  43.6
1995, 4, 100.7
1995, 5,  73.5
1995, 6,  60.5
1995, 7, 102.2
1995, 8,  88.0
1995, 9,  43.8
1995,10,  92.5
1995,11, 108.0
1995,12,  37.0
1996, 1,  43.2
1996, 2,  34.0
1996, 3,  31.4
1996, 4,  81.1
1996, 5, 113.7
1996, 6, 147.7
1996, 7,  46.2
1996, 8,  41.0
1996, 9,  76.7
1996,10,  86.1
1996,11,  61.2
1996,12,  66.8
1997, 1,  78.5
1997, 2, 102.2
1997, 3,  47.0
1997, 4,  47.7
1997, 5,  87.7
1997, 6, 118.7
1997, 7,  64.6
1997, 8,  92.9
1997, 9, 100.9
1997,10,  52.7
1997,11,  50.2
1997,12,  44.3
1998, 1,  99.8
1998, 2,  48.9
1998, 3, 114.7
1998, 4,  79.0
1998, 5,  45.3
1998, 6,  58.3
1998, 7,  61.8
1998, 8,  93.2
1998, 9,  58.9
1998,10,  88.2
1998,11,  56.9
1998,12,  40.5
1999, 1,  91.0
1999, 2,  38.6
1999, 3,  25.7
1999, 4, 133.3
1999, 5,  82.4
1999, 6, 100.6
1999, 7,  83.4
1999, 8,  68.3
1999, 9,  54.6
1999,10,  30.6
1999,11,  28.0
1999,12,  76.7
2000, 1,  38.9
2000, 2,  35.2
2000, 3,  31.9
2000, 4,  95.9
2000, 5, 187.4
2000, 6,  96.3
2000, 7, 111.8
2000, 8,  75.3
2000, 9, 127.3
2000,10,  49.3
2000,11,  82.8
2000,12,  70.0
2001, 1,  22.9
2001, 2,  72.9
2001, 3,  19.0
2001, 4,  66.3
2001, 5, 158.1
2001, 6,  89.6
2001, 7,  50.5
2001, 8, 108.4
2001, 9,  99.4
2001,10, 159.4
2001,11,  56.4
2001,12,  56.7
2002, 1,  34.7
2002, 2,  48.1
2002, 3,  64.9
2002, 4,  87.0
2002, 5, 102.9
2002, 6,  60.5
2002, 7,  57.5
2002, 8, 102.1
2002, 9,  34.7
2002,10,  57.1
2002,11,  51.4
2002,12,  36.7
2003, 1,  24.1
2003, 2,  17.0
2003, 3,  43.7
2003, 4,  87.4
2003, 5, 106.2
2003, 6,  39.5
2003, 7,  74.4
2003, 8,  63.6
2003, 9,  74.0
2003,10,  59.9
2003,11, 167.3
2003,12,  38.2
2004, 1,  43.7
2004, 2,  21.5
2004, 3, 103.9
2004, 4,  38.5
2004, 5, 211.9
2004, 6,  88.0
2004, 7,  72.1
2004, 8,  90.8
2004, 9,  14.7
2004,10,  75.8
2004,11,  87.4
2004,12,  54.3
2005, 1, 100.4
2005, 2,  58.2
2005, 3,  38.7
2005, 4,  21.7
2005, 5,  51.3
2005, 6,  69.4
2005, 7,  90.9
2005, 8,  43.7
2005, 9,  81.5
2005,10,  23.0
2005,11, 106.7
2005,12,  64.5
2006, 1,  98.9
2006, 2,  43.5
2006, 3,  89.6
2006, 4,  63.9
2006, 5, 123.5
2006, 6,  41.6
2006, 7, 112.8
2006, 8,  76.4
2006, 9,  99.7
2006,10, 126.0
2006,11,  80.8
2006,12,  90.7
2007, 1,  72.5
2007, 2,  43.0
2007, 3,  87.9
2007, 4, 107.4
2007, 5,  60.7
2007, 6,  47.6
2007, 7,  51.5
2007, 8, 176.3
2007, 9,  47.6
2007,10,  93.2
2007,11,  39.5
2007,12,  74.4
2008, 1,  98.7
2008, 2,  90.0
2008, 3,  57.8
2008, 4,  78.9
2008, 5,  62.4
2008, 6, 135.3
2008, 7, 106.1
2008, 8,  28.3
2008, 9, 234.2
2008,10,  79.8
2008,11,  64.3
2008,12, 144.6
2009, 1,  49.7
2009, 2,  85.1
2009, 3,  92.7
2009, 4, 145.3
2009, 5,  66.1
2009, 6, 123.1
2009, 7,  41.1
2009, 8, 147.0
2009, 9,  42.7
2009,10, 183.3
2009,11,  38.4
2009,12,  69.0
2010, 1,  24.5
2010, 2,  36.5
2010, 3,  27.8
2010, 4,  78.4
2010, 5, 127.3
2010, 6, 180.2
2010, 7, 125.0
2010, 8,  47.5
2010, 9,  96.3
2010,10,  57.0
2010,11,  65.2
2010,12,  49.7
2011, 1,  46.0
2011, 2,  62.7
2011, 3,  77.9
2011, 4, 155.9
2011, 5, 125.0
2011, 6,  76.7
2011, 7, 134.5
2011, 8, 112.0
2011, 9,  77.7
2011,10,  85.6
2011,11,  88.0
2011,12,  60.1
2012, 1,  73.2
2012, 2,  48.2
2012, 3,  73.2
2012, 4,  75.4
2012, 5,  72.6
2012, 6,  30.6
2012, 7,  79.4
2012, 8,  75.6
2012, 9,  54.4
2012,10, 157.7
2012,11,  12.4
2012,12,  83.5
2013, 1, 126.8
2013, 2,  76.4
2013, 3,  25.8
2013, 4, 206.3
2013, 5,  91.8
2013, 6, 109.0
2013, 7,  72.3
2013, 8,  70.8
2013, 9,  52.1
2013,10, 131.2
2013,11,  88.5
2013,12,  63.6
2014, 1,  74.4
2014, 2,  45.8
2014, 3,  39.0
2014, 4,  75.2
2014, 5,  88.3
2014, 6, 146.0
2014, 7,  79.1
2014, 8,  77.4
2014, 9,  80.4
2014,10, 103.7
2014,11,  89.6
2014,12,  35.7
2015, 1,  38.0
2015, 2,  33.0
2015, 3,  19.2
2015, 4,  84.2
2015, 5, 116.1
2015, 6, 133.1
2015, 7,  75.8
2015, 8,  80.0
2015, 9,  62.6
2015,10,  67.9
2015,11,  66.0
2015,12,  96.3
2016, 1,  45.9
2016, 2,  51.8
2016, 3, 109.9
2016, 4,  79.7
2016, 5,  77.5
2016, 6,  49.3
2016, 7, 105.6
2016, 8, 180.3
2016, 9,  89.2
2016,10,  94.5
2016,11,  69.9
2016,12,  52.9
2017, 1,  86.1
2017, 2,  55.0
2017, 3,  89.5
2017, 4, 135.5
2017, 5,  58.4
2017, 6, 101.3
2017, 7,  60.3
2017, 8,  56.0
2017, 9,  21.4
2017,10, 266.6
2017,11,  76.5
2017,12,  41.0
2018, 1,  48.2
2018, 2, 200.7
2018, 3,  33.2
2018, 4,  78.1
2018, 5, 155.0
2018, 6,  87.6
2018, 7,  55.2
2018, 8, 141.1
2018, 9, 109.9
2018,10, 125.6
2018,11,  64.4
2018,12,  54.9
2019, 1,  54.8
2019, 2,  69.8
2019, 3,  63.1
2019, 4, 101.8
2019, 5, 125.4
2019, 6, 119.6
2019, 7,  66.8
2019, 8,  68.0
2019, 9, 161.3
2019,10, 287.1
2019,11,   0.0
2019,12,   0.0
