year day srad(MJ/sq.d) tmax(oC) tmin(oC) rain(mm/d) tavg(oC) count_avg_apr
1988, 1,    5.6,   -3.1,   -9.5,    1.9,   -6.3,  -99.0,
1988, 2,   10.6,   -2.2,   -9.1,    1.3,   -5.6,  -99.0,
1988, 3,   12.6,    5.2,   -3.6,    1.7,    0.8,  -99.0,
1988, 4,   17.7,   12.4,    0.9,    3.1,    6.7,   29.0,
1988, 5,   23.1,   19.8,    7.4,    0.8,   13.6,  -99.0,
1988, 6,   25.3,   25.3,   12.4,    0.5,   18.8,  -99.0,
1988, 7,   22.3,   29.6,   17.6,    2.1,   23.6,  -99.0,
1988, 8,   17.3,   28.8,   18.2,    2.8,   23.5,  -99.0,
1988, 9,   14.2,   22.6,   11.6,    5.2,   17.1,  -99.0,
1988,10,    8.3,   10.7,    3.1,    4.0,    6.9,  -99.0,
1988,11,    4.8,    7.6,    0.6,    4.8,    4.1,  -99.0,
1988,12,    5.5,    0.3,   -5.5,    1.7,   -2.6,  -99.0,
1989, 1,    6.7,    1.8,   -5.5,    0.9,   -1.9,  -99.0,
1989, 2,    9.9,   -2.7,   -9.1,    1.0,   -5.9,  -99.0,
1989, 3,   12.0,    4.7,   -4.8,    1.9,   -0.1,  -99.0,
1989, 4,   16.2,   10.9,    0.3,    1.4,    5.6,   27.0,
1989, 5,   18.8,   17.1,    6.4,    4.9,   11.8,  -99.0,
1989, 6,   19.9,   22.0,   12.3,    2.3,   17.1,  -99.0,
1989, 7,   20.7,   26.5,   17.0,    1.9,   21.7,  -99.0,
1989, 8,   19.1,   25.3,   15.4,    3.9,   20.3,  -99.0,
1989, 9,   16.0,   21.0,   10.1,    2.3,   15.5,  -99.0,
1989,10,   10.7,   15.6,    5.6,    1.2,   10.6,  -99.0,
1989,11,    6.0,    5.6,   -1.5,    3.1,    2.1,  -99.0,
1989,12,    5.4,   -4.1,   -9.1,    1.2,   -6.6,  -99.0,
1990, 1,    6.3,    2.1,   -4.2,    1.7,   -1.0,  -99.0,
1990, 2,    9.0,    1.3,   -6.6,    2.5,   -2.7,  -99.0,
1990, 3,   11.7,    6.8,   -1.8,    2.0,    2.5,  -99.0,
1990, 4,   16.3,   12.2,    2.4,    2.0,    7.3,   23.0,
1990, 5,   19.0,   16.6,    6.3,    4.4,   11.4,  -99.0,
1990, 6,   21.1,   22.3,   12.5,    3.0,   17.4,  -99.0,
1990, 7,   20.5,   25.1,   15.3,    2.7,   20.2,  -99.0,
1990, 8,   17.5,   25.4,   15.5,    2.8,   20.5,  -99.0,
1990, 9,   15.6,   22.5,   12.1,    3.2,   17.3,  -99.0,
1990,10,   10.5,   14.3,    4.8,    4.7,    9.6,  -99.0,
1990,11,    6.5,    9.1,    0.9,    5.4,    5.0,  -99.0,
1990,12,    4.8,    1.3,   -4.7,    2.2,   -1.7,  -99.0,
1991, 1,    6.7,   -3.1,   -9.5,    1.1,   -6.3,  -99.0,
1991, 2,    9.4,    1.9,   -4.6,    0.8,   -1.4,  -99.0,
1991, 3,   12.4,    7.2,   -1.7,    3.1,    2.8,  -99.0,
1991, 4,   15.1,   13.5,    3.4,    4.1,    8.5,   23.0,
1991, 5,   18.7,   20.8,   11.2,    2.8,   16.0,  -99.0,
1991, 6,   23.9,   25.1,   14.8,    2.4,   20.0,  -99.0,
1991, 7,   21.9,   26.1,   16.9,    3.5,   21.5,  -99.0,
1991, 8,   19.5,   26.1,   15.8,    2.7,   21.0,  -99.0,
1991, 9,   14.9,   21.0,   11.2,    2.4,   16.1,  -99.0,
1991,10,    9.3,   15.1,    6.1,    5.9,   10.6,  -99.0,
1991,11,    6.4,    5.1,   -2.2,    3.6,    1.5,  -99.0,
1991,12,    5.2,    1.5,   -4.8,    1.8,   -1.6,  -99.0,
1992, 1,    5.7,   -0.3,   -6.0,    1.6,   -3.2,  -99.0,
1992, 2,    8.8,    1.9,   -5.2,    1.2,   -1.7,  -99.0,
1992, 3,   12.9,    5.5,   -3.6,    2.1,    0.9,  -99.0,
1992, 4,   12.4,   10.6,    1.1,    2.7,    5.8,   28.0,
1992, 5,   21.0,   17.8,    5.8,    0.9,   11.8,  -99.0,
1992, 6,   23.4,   21.9,   10.9,    1.6,   16.4,  -99.0,
1992, 7,   16.0,   23.6,   13.8,    4.8,   18.7,  -99.0,
1992, 8,   18.4,   23.0,   12.8,    2.4,   17.9,  -99.0,
1992, 9,   15.4,   20.4,   10.2,    4.1,   15.3,  -99.0,
1992,10,   10.6,   13.9,    4.2,    1.9,    9.0,  -99.0,
1992,11,    4.2,    5.0,   -0.2,    4.6,    2.4,  -99.0,
1992,12,    4.4,    1.0,   -4.4,    2.2,   -1.7,  -99.0,
1993, 1,    6.8,   -1.0,   -7.8,    2.8,   -4.4,  -99.0,
1993, 2,    8.9,   -2.0,   -8.6,    1.2,   -5.3,  -99.0,
1993, 3,   11.5,    3.8,   -3.5,    1.9,    0.2,  -99.0,
1993, 4,   14.1,   10.7,    1.0,    4.2,    5.8,   29.0,
1993, 5,   19.1,   17.8,    6.9,    2.0,   12.3,  -99.0,
1993, 6,   20.4,   21.4,   11.9,    5.2,   16.7,  -99.0,
1993, 7,   21.8,   25.2,   16.6,    2.7,   20.9,  -99.0,
1993, 8,   16.6,   25.6,   17.2,    4.7,   21.4,  -99.0,
1993, 9,   11.8,   18.1,    9.5,    5.2,   13.8,  -99.0,
1993,10,   10.2,   13.0,    3.8,    2.7,    8.4,  -99.0,
1993,11,    6.4,    5.9,   -0.8,    1.7,    2.5,  -99.0,
1993,12,    4.7,    0.4,   -4.8,    1.1,   -2.2,  -99.0,
1994, 1,    5.6,   -6.1,  -13.7,    2.2,   -9.9,  -99.0,
1994, 2,    8.6,   -3.4,  -11.8,    1.9,   -7.6,  -99.0,
1994, 3,   13.3,    5.0,   -3.7,    1.0,    0.7,  -99.0,
1994, 4,   17.8,   11.9,    1.3,    2.8,    6.6,   27.0,
1994, 5,   22.9,   17.1,    5.4,    1.2,   11.3,  -99.0,
1994, 6,   22.6,   23.6,   13.2,    5.2,   18.4,  -99.0,
1994, 7,   20.4,   24.7,   16.1,    3.7,   20.4,  -99.0,
1994, 8,   16.1,   23.5,   14.0,    4.4,   18.7,  -99.0,
1994, 9,   15.2,   22.4,   12.4,    2.1,   17.4,  -99.0,
1994,10,    9.7,   15.7,    5.6,    2.3,   10.7,  -99.0,
1994,11,    5.5,    9.3,    1.0,    4.0,    5.1,  -99.0,
1994,12,    4.9,    2.8,   -3.7,    1.2,   -0.5,  -99.0,
1995, 1,    5.5,   -1.1,   -6.7,    2.3,   -3.9,  -99.0,
1995, 2,    9.9,   -1.8,   -9.0,    1.0,   -5.4,  -99.0,
1995, 3,   11.6,    7.0,   -2.9,    1.4,    2.1,  -99.0,
1995, 4,   14.0,    9.8,    0.5,    3.4,    5.2,   29.0,
1995, 5,   18.3,   17.1,    6.8,    2.4,   12.0,  -99.0,
1995, 6,   22.7,   24.3,   14.2,    2.0,   19.3,  -99.0,
1995, 7,   22.9,   26.6,   17.1,    3.3,   21.8,  -99.0,
1995, 8,   17.1,   28.0,   19.3,    2.8,   23.7,  -99.0,
1995, 9,   16.2,   21.5,   10.1,    1.5,   15.8,  -99.0,
1995,10,    9.5,   15.5,    6.7,    3.0,   11.1,  -99.0,
1995,11,    5.5,    3.0,   -3.8,    3.6,   -0.4,  -99.0,
1995,12,    5.6,   -1.3,   -7.5,    1.2,   -4.4,  -99.0,
1996, 1,    6.2,   -2.5,   -9.8,    1.4,   -6.1,  -99.0,
1996, 2,    8.4,   -0.5,   -7.6,    1.2,   -4.1,  -99.0,
1996, 3,   13.3,    3.0,   -7.1,    1.0,   -2.1,  -99.0,
1996, 4,   15.0,   10.0,    0.1,    2.7,    5.0,   28.0,
1996, 5,   16.1,   16.7,    6.4,    3.7,   11.6,  -99.0,
1996, 6,   19.9,   22.3,   12.6,    4.9,   17.4,  -99.0,
1996, 7,   21.5,   23.5,   13.5,    1.5,   18.5,  -99.0,
1996, 8,   20.7,   26.9,   16.4,    1.3,   21.7,  -99.0,
1996, 9,   14.1,   21.8,   12.3,    2.6,   17.0,  -99.0,
1996,10,   10.4,   15.7,    5.0,    2.8,   10.4,  -99.0,
1996,11,    5.5,    3.8,   -2.0,    2.0,    0.9,  -99.0,
1996,12,    4.5,    0.5,   -4.4,    2.2,   -2.0,  -99.0,
1997, 1,    5.2,   -2.5,   -9.4,    2.5,   -5.9,  -99.0,
1997, 2,    8.7,    1.1,   -6.4,    3.6,   -2.6,  -99.0,
1997, 3,   11.6,    4.4,   -3.1,    1.5,    0.7,  -99.0,
1997, 4,   17.3,   10.8,    0.2,    1.6,    5.5,   28.0,
1997, 5,   18.2,   14.2,    3.6,    2.8,    8.9,  -99.0,
1997, 6,   23.1,   23.2,   12.9,    4.0,   18.1,  -99.0,
1997, 7,   22.5,   25.5,   15.3,    2.1,   20.4,  -99.0,
1997, 8,   17.1,   23.9,   14.4,    3.0,   19.1,  -99.0,
1997, 9,   15.2,   21.6,   11.4,    3.4,   16.5,  -99.0,
1997,10,   10.4,   15.5,    5.7,    1.7,   10.6,  -99.0,
1997,11,    6.4,    5.5,   -0.7,    1.7,    2.4,  -99.0,
1997,12,    5.0,    1.7,   -3.3,    1.4,   -0.8,  -99.0,
1998, 1,    6.7,    0.4,   -5.9,    3.2,   -2.8,  -99.0,
1998, 2,    7.9,    4.7,   -2.8,    1.7,    0.9,  -99.0,
1998, 3,   12.0,    5.3,   -2.6,    3.7,    1.3,  -99.0,
1998, 4,   15.9,   13.3,    2.7,    2.6,    8.0,   28.0,
1998, 5,   21.8,   21.5,   10.3,    1.5,   15.9,  -99.0,
1998, 6,   23.3,   23.5,   13.5,    1.9,   18.5,  -99.0,
1998, 7,   24.4,   27.2,   16.9,    2.0,   22.0,  -99.0,
1998, 8,   18.4,   27.3,   17.3,    3.0,   22.3,  -99.0,
1998, 9,   17.2,   25.1,   13.8,    2.0,   19.4,  -99.0,
1998,10,   10.2,   16.9,    7.5,    2.8,   12.2,  -99.0,
1998,11,    6.8,    9.6,    1.6,    1.9,    5.6,  -99.0,
1998,12,    5.5,    4.6,   -2.3,    1.3,    1.2,  -99.0,
1999, 1,    6.1,   -2.6,   -8.9,    2.9,   -5.8,  -99.0,
1999, 2,    9.0,    3.1,   -4.1,    1.4,   -0.5,  -99.0,
1999, 3,   15.4,    5.3,   -4.8,    0.8,    0.3,  -99.0,
1999, 4,   16.5,   13.8,    2.8,    4.4,    8.3,   28.0,
1999, 5,   20.3,   20.2,    8.8,    2.7,   14.5,  -99.0,
1999, 6,   23.1,   24.8,   14.4,    3.4,   19.6,  -99.0,
1999, 7,   23.4,   28.4,   18.3,    2.7,   23.3,  -99.0,
1999, 8,   18.8,   25.7,   15.2,    2.2,   20.4,  -99.0,
1999, 9,   17.6,   23.8,   11.4,    1.8,   17.6,  -99.0,
1999,10,   10.8,   15.6,    4.9,    1.0,   10.3,  -99.0,
1999,11,    7.8,   11.1,    2.0,    0.9,    6.6,  -99.0,
1999,12,    4.8,    2.5,   -4.7,    2.5,   -1.1,  -99.0,
2000, 1,    6.5,   -1.3,   -8.0,    1.3,   -4.7,  -99.0,
2000, 2,    9.1,    4.0,   -4.7,    1.3,   -0.4,  -99.0,
2000, 3,   13.5,   10.2,   -0.2,    1.0,    5.0,  -99.0,
2000, 4,   15.7,   12.9,    1.8,    3.2,    7.3,   29.0,
2000, 5,   16.8,   19.4,    9.3,    6.0,   14.3,  -99.0,
2000, 6,   19.8,   22.4,   13.0,    3.2,   17.7,  -99.0,
2000, 7,   20.3,   25.0,   15.4,    3.6,   20.2,  -99.0,
2000, 8,   19.6,   25.9,   15.6,    2.4,   20.7,  -99.0,
2000, 9,   14.4,   21.7,   11.3,    4.2,   16.5,  -99.0,
2000,10,   11.0,   17.4,    7.2,    1.6,   12.3,  -99.0,
2000,11,    6.0,    6.3,    0.3,    2.8,    3.3,  -99.0,
2000,12,    4.9,   -4.0,  -10.8,    2.3,   -7.4,  -99.0,
2001, 1,    6.3,   -1.2,   -8.2,    0.7,   -4.7,  -99.0,
2001, 2,    8.5,    0.6,   -6.7,    2.6,   -3.0,  -99.0,
2001, 3,   12.4,    4.3,   -3.5,    0.6,    0.4,  -99.0,
2001, 4,   16.7,   14.8,    2.9,    2.2,    8.9,   23.0,
2001, 5,   17.9,   19.2,    8.6,    5.1,   13.9,  -99.0,
2001, 6,   20.9,   22.6,   13.0,    3.0,   17.8,  -99.0,
2001, 7,   22.3,   26.8,   15.8,    1.6,   21.3,  -99.0,
2001, 8,   18.7,   27.4,   17.1,    3.5,   22.2,  -99.0,
2001, 9,   15.1,   21.2,   10.8,    3.3,   16.0,  -99.0,
2001,10,   10.0,   14.6,    6.3,    5.1,   10.4,  -99.0,
2001,11,    7.2,   11.5,    3.2,    1.9,    7.4,  -99.0,
2001,12,    5.1,    4.1,   -1.5,    1.8,    1.3,  -99.0,
2002, 1,    6.2,    1.9,   -3.8,    1.1,   -0.9,  -99.0,
2002, 2,    9.6,    2.8,   -4.0,    1.7,   -0.6,  -99.0,
2002, 3,   10.4,    3.9,   -4.6,    2.1,   -0.3,  -99.0,
2002, 4,   15.6,   12.3,    2.7,    2.9,    7.5,   25.0,
2002, 5,   17.8,   15.6,    5.2,    3.3,   10.4,  -99.0,
2002, 6,   21.6,   23.9,   14.2,    2.0,   19.0,  -99.0,
2002, 7,   23.3,   28.5,   18.0,    1.9,   23.3,  -99.0,
2002, 8,   20.6,   27.3,   16.3,    3.3,   21.8,  -99.0,
2002, 9,   17.2,   25.8,   13.8,    1.2,   19.8,  -99.0,
2002,10,   10.4,   13.9,    4.9,    1.8,    9.4,  -99.0,
2002,11,    6.2,    6.4,   -0.4,    1.7,    3.0,  -99.0,
2002,12,    5.4,    1.4,   -4.6,    1.2,   -1.6,  -99.0,
2003, 1,    7.0,   -3.2,   -8.6,    0.8,   -5.9,  -99.0,
2003, 2,   10.5,   -2.1,   -9.6,    0.6,   -5.9,  -99.0,
2003, 3,   11.8,    6.2,   -4.3,    1.4,    0.9,  -99.0,
2003, 4,   16.9,   12.7,    0.6,    2.9,    6.6,   25.0,
2003, 5,   17.6,   17.0,    6.5,    3.4,   11.8,  -99.0,
2003, 6,   22.8,   23.0,   11.5,    1.3,   17.2,  -99.0,
2003, 7,   22.8,   26.9,   16.0,    2.4,   21.4,  -99.0,
2003, 8,   21.5,   28.2,   17.4,    2.1,   22.8,  -99.0,
2003, 9,   15.4,   22.6,   12.0,    2.5,   17.3,  -99.0,
2003,10,   11.1,   14.9,    5.4,    1.9,   10.2,  -99.0,
2003,11,    5.4,    8.5,    1.6,    5.6,    5.0,  -99.0,
2003,12,    5.0,    2.2,   -3.2,    1.2,   -0.5,  -99.0,
2004, 1,    6.2,   -3.8,  -10.0,    1.4,   -6.9,  -99.0,
2004, 2,    9.9,    0.6,   -8.3,    0.8,   -3.9,  -99.0,
2004, 3,   11.2,    7.4,   -0.7,    3.4,    3.4,  -99.0,
2004, 4,   19.2,   14.0,    2.2,    1.3,    8.1,   25.0,
2004, 5,   17.7,   18.6,    8.5,    6.8,   13.5,  -99.0,
2004, 6,   22.7,   21.6,   12.3,    2.9,   16.9,  -99.0,
2004, 7,   21.8,   24.8,   15.5,    2.3,   20.1,  -99.0,
2004, 8,   19.0,   23.8,   14.5,    2.9,   19.1,  -99.0,
2004, 9,   18.6,   25.3,   13.1,    0.5,   19.2,  -99.0,
2004,10,   10.2,   15.8,    6.7,    2.4,   11.3,  -99.0,
2004,11,    6.2,    8.7,    1.6,    2.9,    5.2,  -99.0,
2004,12,    4.9,    1.4,   -4.4,    1.8,   -1.5,  -99.0,
2005, 1,    6.5,   -2.2,   -9.9,    3.2,   -6.1,  -99.0,
2005, 2,    8.8,    1.4,   -4.9,    2.1,   -1.7,  -99.0,
2005, 3,   12.9,    3.6,   -5.0,    1.2,   -0.7,  -99.0,
2005, 4,   19.4,   14.6,    2.6,    0.7,    8.6,   25.0,
2005, 5,   19.5,   17.5,    6.6,    1.7,   12.0,  -99.0,
2005, 6,   22.5,   27.1,   16.9,    2.3,   22.0,  -99.0,
2005, 7,   22.8,   28.7,   17.5,    2.9,   23.1,  -99.0,
2005, 8,   19.6,   28.2,   17.7,    1.4,   22.9,  -99.0,
2005, 9,   16.1,   25.8,   14.2,    2.7,   20.0,  -99.0,
2005,10,   10.8,   16.9,    7.6,    0.7,   12.2,  -99.0,
2005,11,    6.3,    9.1,    1.2,    3.6,    5.1,  -99.0,
2005,12,    5.5,   -1.6,   -6.0,    2.1,   -3.8,  -99.0,
2006, 1,    4.5,    3.0,   -2.0,    3.2,    0.5,  -99.0,
2006, 2,    9.5,    0.3,   -6.3,    1.6,   -3.0,  -99.0,
2006, 3,   11.7,    6.4,   -2.2,    2.9,    2.1,  -99.0,
2006, 4,   17.6,   14.5,    3.2,    2.1,    8.8,   25.0,
2006, 5,   19.0,   17.9,    8.3,    4.0,   13.1,  -99.0,
2006, 6,   23.4,   23.6,   13.3,    1.4,   18.5,  -99.0,
2006, 7,   21.7,   27.6,   18.1,    3.6,   22.8,  -99.0,
2006, 8,   19.1,   27.0,   16.7,    2.5,   21.9,  -99.0,
2006, 9,   12.6,   20.8,   11.5,    3.3,   16.2,  -99.0,
2006,10,    9.3,   12.8,    4.4,    4.1,    8.6,  -99.0,
2006,11,    6.2,    8.4,    1.2,    2.7,    4.8,  -99.0,
2006,12,    4.5,    3.9,   -1.7,    2.9,    1.1,  -99.0,
2007, 1,    5.9,    0.2,   -5.9,    2.3,   -2.9,  -99.0,
2007, 2,    9.5,   -5.1,  -11.7,    1.5,   -8.4,  -99.0,
2007, 3,   13.0,    8.0,   -1.4,    2.8,    3.3,  -99.0,
2007, 4,   15.4,   10.8,    1.6,    3.6,    6.2,   25.0,
2007, 5,   22.4,   20.4,    8.9,    2.0,   14.7,  -99.0,
2007, 6,   24.0,   24.8,   14.4,    1.6,   19.6,  -99.0,
2007, 7,   23.8,   26.4,   16.0,    1.7,   21.2,  -99.0,
2007, 8,   18.0,   26.6,   17.0,    5.7,   21.8,  -99.0,
2007, 9,   16.9,   24.1,   12.8,    1.6,   18.5,  -99.0,
2007,10,   10.4,   18.8,    9.5,    3.0,   14.1,  -99.0,
2007,11,    6.3,    6.9,   -0.1,    1.3,    3.4,  -99.0,
2007,12,    5.1,    0.2,   -5.1,    2.4,   -2.4,  -99.0,
2008, 1,    5.6,   -0.6,   -6.7,    3.2,   -3.7,  -99.0,
2008, 2,    7.2,   -2.1,   -9.8,    3.2,   -6.0,  -99.0,
2008, 3,   12.8,    4.1,   -4.2,    1.9,    0.0,  -99.0,
2008, 4,   18.9,   13.9,    2.6,    2.6,    8.2,   21.0,
2008, 5,   21.4,   16.5,    5.6,    2.0,   11.1,  -99.0,
2008, 6,   21.7,   22.8,   13.5,    4.5,   18.1,  -99.0,
2008, 7,   23.1,   25.5,   16.5,    3.4,   21.0,  -99.0,
2008, 8,   21.6,   26.4,   15.4,    0.9,   20.9,  -99.0,
2008, 9,   14.9,   22.5,   12.4,    7.8,   17.5,  -99.0,
2008,10,   10.8,   14.2,    5.1,    2.6,    9.6,  -99.0,
2008,11,    6.0,    6.3,    0.1,    2.1,    3.2,  -99.0,
2008,12,    3.8,   -0.8,   -7.7,    4.7,   -4.3,  -99.0,
2009, 1,    5.8,   -4.5,  -11.8,    1.6,   -8.2,  -99.0,
2009, 2,    9.9,    1.1,   -6.5,    3.0,   -2.7,  -99.0,
2009, 3,   15.2,    6.5,   -3.7,    3.0,    1.4,  -99.0,
2009, 4,   16.6,   11.8,    1.5,    4.8,    6.6,   26.0,
2009, 5,   22.1,   17.3,    6.6,    2.1,   12.0,  -99.0,
2009, 6,   21.3,   22.4,   13.0,    4.1,   17.7,  -99.0,
2009, 7,   21.1,   22.7,   13.9,    1.3,   18.3,  -99.0,
2009, 8,   18.8,   24.0,   15.3,    4.7,   19.6,  -99.0,
2009, 9,   16.2,   22.7,   12.2,    1.4,   17.4,  -99.0,
2009,10,    8.0,   12.5,    4.9,    5.9,    8.7,  -99.0,
2009,11,    7.0,    9.9,    2.3,    1.3,    6.1,  -99.0,
2009,12,    4.3,   -0.3,   -6.2,    2.2,   -3.3,  -99.0,
2010, 1,    6.7,   -2.0,   -8.3,    0.8,   -5.1,  -99.0,
2010, 2,    7.9,   -0.4,   -5.8,    1.3,   -3.1,  -99.0,
2010, 3,   14.8,    9.2,   -1.3,    0.9,    4.0,  -99.0,
2010, 4,   18.9,   15.7,    3.9,    2.6,    9.8,   25.0,
2010, 5,   20.2,   19.5,    9.2,    4.1,   14.3,  -99.0,
2010, 6,   21.3,   23.6,   14.6,    6.0,   19.1,  -99.0,
2010, 7,   22.7,   27.1,   18.4,    4.0,   22.8,  -99.0,
2010, 8,   19.9,   27.4,   18.6,    1.5,   23.0,  -99.0,
2010, 9,   14.0,   21.1,   11.9,    3.2,   16.5,  -99.0,
2010,10,   12.1,   16.8,    6.9,    1.8,   11.9,  -99.0,
2010,11,    6.7,    9.2,    0.3,    2.2,    4.7,  -99.0,
2010,12,    4.6,   -1.2,   -6.5,    1.6,   -3.9,  -99.0,
2011, 1,    5.9,   -3.5,  -10.0,    1.5,   -6.8,  -99.0,
2011, 2,    9.3,   -1.0,   -8.0,    2.2,   -4.5,  -99.0,
2011, 3,   13.8,    4.5,   -4.5,    2.5,    0.0,  -99.0,
2011, 4,   13.9,   12.0,    1.9,    5.2,    6.9,   28.0,
2011, 5,   18.9,   18.4,    8.5,    4.0,   13.4,  -99.0,
2011, 6,   21.5,   23.0,   13.5,    2.6,   18.3,  -99.0,
2011, 7,   22.4,   27.8,   18.7,    4.3,   23.3,  -99.0,
2011, 8,   19.3,   25.7,   16.5,    3.6,   21.1,  -99.0,
2011, 9,   13.7,   21.0,   11.4,    2.6,   16.2,  -99.0,
2011,10,   11.3,   15.9,    6.5,    2.8,   11.2,  -99.0,
2011,11,    6.4,    9.7,    1.9,    2.9,    5.8,  -99.0,
2011,12,    5.2,    3.4,   -2.6,    1.9,    0.4,  -99.0,
2012, 1,    6.4,    1.2,   -5.2,    2.4,   -2.0,  -99.0,
2012, 2,   10.2,    2.8,   -3.6,    1.7,   -0.4,  -99.0,
2012, 3,   13.9,   13.4,    3.6,    2.4,    8.5,  -99.0,
2012, 4,   17.9,   13.3,    2.0,    2.5,    7.7,   28.0,
2012, 5,   22.3,   21.1,    9.6,    2.3,   15.3,  -99.0,
2012, 6,   25.7,   25.7,   14.2,    1.0,   19.9,  -99.0,
2012, 7,   23.8,   30.7,   19.8,    2.6,   25.2,  -99.0,
2012, 8,   21.0,   27.3,   16.3,    2.4,   21.8,  -99.0,
2012, 9,   16.7,   22.8,   12.1,    1.8,   17.4,  -99.0,
2012,10,    9.5,   14.3,    5.8,    5.1,   10.1,  -99.0,
2012,11,    7.2,    8.3,    0.1,    0.4,    4.2,  -99.0,
2012,12,    4.8,    4.0,   -2.7,    2.7,    0.7,  -99.0,
2013, 1,    6.1,   -0.6,   -7.2,    4.1,   -3.9,  -99.0,
2013, 2,    6.6,   -0.9,   -7.6,    2.7,   -4.2,  -99.0,
2013, 3,   11.2,    3.1,   -4.2,    0.8,   -0.6,  -99.0,
2013, 4,   14.8,   10.4,    0.8,    6.9,    5.6,   27.0,
2013, 5,   19.8,   19.5,    9.4,    3.0,   14.4,  -99.0,
2013, 6,   22.8,   22.7,   13.3,    3.6,   18.0,  -99.0,
2013, 7,   21.5,   25.1,   16.4,    2.3,   20.7,  -99.0,
2013, 8,   19.4,   25.3,   15.5,    2.3,   20.4,  -99.0,
2013, 9,   15.8,   22.7,   11.8,    1.7,   17.3,  -99.0,
2013,10,    9.4,   16.0,    7.1,    4.2,   11.6,  -99.0,
2013,11,    5.6,    6.1,   -0.7,    3.0,    2.7,  -99.0,
2013,12,    3.6,   -1.8,   -7.3,    2.1,   -4.6,  -99.0,
2014, 1,    4.8,   -5.4,  -12.6,    2.4,   -9.0,  -99.0,
2014, 2,    7.4,   -5.4,  -13.0,    1.6,   -9.2,  -99.0,
2014, 3,   11.5,    1.5,   -8.2,    1.3,   -3.4,  -99.0,
2014, 4,   17.9,   11.8,    0.5,    2.5,    6.2,   27.0,
2014, 5,   20.1,   18.1,    7.6,    2.8,   12.8,  -99.0,
2014, 6,   21.2,   23.6,   14.3,    4.9,   19.0,  -99.0,
2014, 7,   22.5,   23.3,   14.0,    2.6,   18.7,  -99.0,
2014, 8,   18.2,   25.8,   16.0,    2.5,   20.9,  -99.0,
2014, 9,   14.9,   21.8,   11.2,    2.7,   16.5,  -99.0,
2014,10,    9.1,   14.6,    5.5,    3.3,   10.0,  -99.0,
2014,11,    4.2,    4.0,   -2.2,    3.0,    0.9,  -99.0,
2014,12,    4.9,    1.9,   -3.3,    1.2,   -0.7,  -99.0,
2015, 1,    5.6,   -2.8,  -10.2,    1.2,   -6.5,  -99.0,
2015, 2,    8.5,   -6.5,  -15.4,    1.2,  -10.9,  -99.0,
2015, 3,   14.1,    4.6,   -5.7,    0.6,   -0.5,  -99.0,
2015, 4,   16.1,   13.3,    1.2,    2.8,    7.3,   29.0,
2015, 5,   17.7,   19.8,    8.9,    3.7,   14.4,  -99.0,
2015, 6,   19.9,   22.8,   12.6,    4.4,   17.7,  -99.0,
2015, 7,   22.6,   25.4,   15.3,    2.4,   20.3,  -99.0,
2015, 8,   18.1,   25.5,   16.1,    2.6,   20.8,  -99.0,
2015, 9,   15.6,   24.9,   14.3,    2.1,   19.6,  -99.0,
2015,10,    9.4,   16.0,    6.9,    2.2,   11.4,  -99.0,
2015,11,    7.0,   11.4,    2.9,    2.2,    7.2,  -99.0,
2015,12,    4.1,    6.5,    0.6,    3.1,    3.6,  -99.0,
2016, 1,    5.6,   -1.0,   -6.6,    1.5,   -3.8,  -99.0,
2016, 2,    9.2,    1.7,   -5.5,    1.8,   -1.9,  -99.0,
2016, 3,   11.7,    8.3,   -1.3,    3.5,    3.5,  -99.0,
2016, 4,   15.2,   11.7,    1.2,    2.7,    6.5,   25.0,
2016, 5,   20.8,   18.7,    8.2,    2.5,   13.4,  -99.0,
2016, 6,   22.1,   24.3,   14.3,    1.6,   19.3,  -99.0,
2016, 7,   21.5,   27.5,   17.8,    3.4,   22.7,  -99.0,
2016, 8,   18.8,   27.1,   18.4,    5.8,   22.8,  -99.0,
2016, 9,   15.5,   23.9,   14.4,    3.0,   19.2,  -99.0,
2016,10,    9.7,   17.3,    8.0,    3.0,   12.6,  -99.0,
2016,11,    6.8,   11.3,    3.3,    2.3,    7.3,  -99.0,
2016,12,    3.3,   -0.2,   -5.0,    1.7,   -2.6,  -99.0,
2017, 1,    4.7,    0.3,   -4.5,    2.8,   -2.1,  -99.0,
2017, 2,    9.6,    5.2,   -2.8,    2.0,    1.2,  -99.0,
2017, 3,   11.6,    5.1,   -2.8,    2.9,    1.1,  -99.0,
2017, 4,   15.3,   14.6,    4.2,    4.5,    9.4,   23.0,
2017, 5,   20.2,   17.3,    6.9,    1.9,   12.1,  -99.0,
2017, 6,   22.8,   23.5,   14.6,    3.4,   19.0,  -99.0,
2017, 7,   23.5,   26.5,   16.6,    1.9,   21.5,  -99.0,
2017, 8,   18.8,   25.3,   15.3,    1.8,   20.3,  -99.0,
2017, 9,   17.2,   24.9,   13.3,    0.7,   19.1,  -99.0,
2017,10,    9.3,   17.3,    8.6,    8.6,   12.9,  -99.0,
2017,11,    5.8,    6.7,   -0.4,    2.5,    3.1,  -99.0,
2017,12,    4.2,   -0.5,   -5.7,    1.3,   -3.1,  -99.0,
2018, 1,    6.3,   -1.0,   -6.4,    1.6,   -3.7,  -99.0,
2018, 2,    8.2,    0.9,   -6.5,    7.2,   -2.8,  -99.0,
2018, 3,   14.0,    4.3,   -4.0,    1.1,    0.2,  -99.0,
2018, 4,   17.3,    7.5,   -1.6,    2.6,    3.0,   30.0,
2018, 5,   19.6,   21.1,   10.7,    5.0,   15.9,  -99.0,
2018, 6,   20.2,   23.8,   14.5,    2.9,   19.2,  -99.0,
2018, 7,   23.7,   26.2,   17.2,    1.8,   21.7,  -99.0,
2018, 8,   18.8,   27.1,   17.9,    4.6,   22.5,  -99.0,
2018, 9,   14.9,   23.2,   14.0,    3.7,   18.6,  -99.0,
2018,10,    8.5,   14.3,    5.6,    4.1,    9.9,  -99.0,
2018,11,    4.0,    3.6,   -1.8,    2.1,    0.9,  -99.0,
2018,12,    4.3,    2.5,   -2.9,    1.8,   -0.2,  -99.0,
2019, 1,    5.5,   -2.6,   -9.2,    1.8,   -5.9,  -99.0,
2019, 2,    7.1,   -0.8,   -8.2,    2.5,   -4.5,  -99.0,
2019, 3,   12.1,    3.6,   -4.6,    2.0,   -0.5,  -99.0,
2019, 4,   16.3,   12.0,    1.6,    3.4,    6.8,   27.0,
2019, 5,   15.7,   17.2,    7.5,    4.0,   12.3,  -99.0,
2019, 6,   20.6,   22.1,   12.6,    4.0,   17.3,  -99.0,
2019, 7,   23.5,   26.7,   17.7,    2.2,   22.2,  -99.0,
2019, 8,   20.0,   25.8,   16.1,    2.2,   21.0,  -99.0,
2019, 9,   13.3,   23.8,   14.9,    5.4,   19.3,  -99.0,
2019,10,    8.0,   13.6,    6.2,    9.3,    9.9,  -99.0,
2019,11,    0.0,    0.0,    0.0,    0.0,    0.0,  -99.0,
2019,12,    0.0,    0.0,    0.0,    0.0,    0.0,  -99.0,
